Geneset_Name,Gene_Symbol,Direction,TopTerm,Collapsed_clusters,termName
ACIDIC AMINO ACID TRANSPORT,NF1,Decrease,DICARBOXYLIC ACID TRANSPORT,8,GO:0015800
ACTIVATION OF IMMUNE RESPONSE,PLCL2,Decrease,ACTIVATION OF IMMUNE RESPONSE,1,GO:0002253
ACTIVATION OF IMMUNE RESPONSE,GRAMD4,Decrease,ACTIVATION OF IMMUNE RESPONSE,1,GO:0002253
ACTIVATION OF IMMUNE RESPONSE,APCS,Increase,ACTIVATION OF IMMUNE RESPONSE,1,GO:0002253
ACTIVATION OF INNATE IMMUNE RESPONSE,GRAMD4,Decrease,ACTIVATION OF INNATE IMMUNE RESPONSE,1,GO:0002218
ADP METABOLIC PROC.,AK1,Increase,NUCLEOSIDE MONOPHOSPHATE BIOSYNTHETIC PROC.,5,GO:0046031
ADP METABOLIC PROC.,APP,Increase,NUCLEOSIDE MONOPHOSPHATE BIOSYNTHETIC PROC.,5,GO:0046031
AEROBIC RESPIRATION,NNT,Decrease,AEROBIC RESPIRATION,2,GO:0009060
AEROBIC RESPIRATION,PDHA1,Decrease,AEROBIC RESPIRATION,2,GO:0009060
ALCOHOL BIOSYNTHETIC PROC.,PPIP5K2,Decrease,ALCOHOL METABOLIC PROC.,3,GO:0046165
ALCOHOL BIOSYNTHETIC PROC.,PLCD1,Increase,ALCOHOL METABOLIC PROC.,3,GO:0046165
ALCOHOL BIOSYNTHETIC PROC.,PLCL2,Decrease,ALCOHOL METABOLIC PROC.,3,GO:0046165
ALCOHOL METABOLIC PROC.,PLCD1,Increase,ALCOHOL METABOLIC PROC.,3,GO:0006066
ALCOHOL METABOLIC PROC.,DPM1,Decrease,ALCOHOL METABOLIC PROC.,3,GO:0006066
ALCOHOL METABOLIC PROC.,PPIP5K2,Decrease,ALCOHOL METABOLIC PROC.,3,GO:0006066
ALCOHOL METABOLIC PROC.,GK,Decrease,ALCOHOL METABOLIC PROC.,3,GO:0006066
ALCOHOL METABOLIC PROC.,MTMR7,Decrease,ALCOHOL METABOLIC PROC.,3,GO:0006066
ALCOHOL METABOLIC PROC.,APP,Increase,ALCOHOL METABOLIC PROC.,3,GO:0006066
ALCOHOL METABOLIC PROC.,PLCL2,Decrease,ALCOHOL METABOLIC PROC.,3,GO:0006066
AMINO ACID TRANSPORT,NF1,Decrease,DICARBOXYLIC ACID TRANSPORT,8,GO:0006865
AMMONIUM ION METABOLIC PROC.,LPIN1,Increase,AMMONIUM ION METABOLIC PROC.,3,GO:0097164
AMMONIUM ION METABOLIC PROC.,LPCAT4,Decrease,AMMONIUM ION METABOLIC PROC.,3,GO:0097164
AMYLOID BETA METABOLIC PROC.,APP,Increase,AMYLOID PRECURSOR PROTEIN METABOLIC PROC.,4,GO:0050435
AMYLOID BETA METABOLIC PROC.,BACE1,Increase,AMYLOID PRECURSOR PROTEIN METABOLIC PROC.,4,GO:0050435
AMYLOID BETA METABOLIC PROC.,SPON1,Increase,AMYLOID PRECURSOR PROTEIN METABOLIC PROC.,4,GO:0050435
AMYLOID PRECURSOR PROTEIN CATABOLIC PROC.,SPON1,Increase,AMYLOID PRECURSOR PROTEIN METABOLIC PROC.,4,GO:0042987
AMYLOID PRECURSOR PROTEIN CATABOLIC PROC.,APP,Increase,AMYLOID PRECURSOR PROTEIN METABOLIC PROC.,4,GO:0042987
AMYLOID PRECURSOR PROTEIN CATABOLIC PROC.,BACE1,Increase,AMYLOID PRECURSOR PROTEIN METABOLIC PROC.,4,GO:0042987
AMYLOID PRECURSOR PROTEIN METABOLIC PROC.,BACE1,Increase,AMYLOID PRECURSOR PROTEIN METABOLIC PROC.,4,GO:0042982
AMYLOID PRECURSOR PROTEIN METABOLIC PROC.,SPON1,Increase,AMYLOID PRECURSOR PROTEIN METABOLIC PROC.,4,GO:0042982
AMYLOID PRECURSOR PROTEIN METABOLIC PROC.,APP,Increase,AMYLOID PRECURSOR PROTEIN METABOLIC PROC.,4,GO:0042982
ANAPHASE PROMOTING COMPLEX DEPENDENT CATABOLIC PROC.,BUB3,Increase,ANAPHASE PROMOTING COMPLEX DEPENDENT CATABOLIC PROC.,5,GO:0031145
ANIMAL ORGAN REGENERATION,LPIN1,Increase,ANIMAL ORGAN REGENERATION,1,GO:0031100
ANTIBIOTIC METABOLIC PROC.,NNT,Decrease,ANTIBIOTIC METABOLIC PROC.,5,GO:0016999
ANTIGEN PROC.ING AND PRESENTATION,RAB3B,Decrease,ANTIGEN PROC.ING AND PRESENTATION OF PEPTIDE ANTIGEN VIA MHC CLASS I,5,GO:0019882
ANTIGEN RECEPTOR MEDIATED SIG PATHWAY,PLCL2,Decrease,ACTIVATION OF IMMUNE RESPONSE,1,GO:0050851
ATP METABOLIC PROC.,NDUFV1,Decrease,OXIDATIVE PHOSPHORYLATION,2,GO:0046034
ATP METABOLIC PROC.,APP,Increase,OXIDATIVE PHOSPHORYLATION,2,GO:0046034
ATP METABOLIC PROC.,AK1,Increase,OXIDATIVE PHOSPHORYLATION,2,GO:0046034
ATP METABOLIC PROC.,ATP1B1,Decrease,OXIDATIVE PHOSPHORYLATION,2,GO:0046034
ATP METABOLIC PROC.,NDUFB3,Decrease,OXIDATIVE PHOSPHORYLATION,2,GO:0046034
ATP SYNTHESIS COUPLED ELECTRON TRANSPORT,NDUFB3,Decrease,OXIDATIVE PHOSPHORYLATION,2,GO:0042773
ATP SYNTHESIS COUPLED ELECTRON TRANSPORT,NDUFV1,Decrease,OXIDATIVE PHOSPHORYLATION,2,GO:0042773
CALCIUM ION REGULATED EXOCYTOSIS,ATP2A2,Decrease,CALCIUM ION REGULATED EXOCYTOSIS,7,GO:0017156
CALCIUM ION REGULATED EXOCYTOSIS,SYT12,Decrease,CALCIUM ION REGULATED EXOCYTOSIS,7,GO:0017156
CARBOHYDRATE CATABOLIC PROC.,GK,Decrease,CARBOHYDRATE METABOLIC PROC.,5,GO:0016052
CARBOHYDRATE CATABOLIC PROC.,APP,Increase,CARBOHYDRATE METABOLIC PROC.,5,GO:0016052
CARBOHYDRATE DERIVATIVE METABOLIC PROC.,PDK3,Decrease,NUCLEOSIDE METABOLIC PROC.,5,GO:1901135
CARBOHYDRATE DERIVATIVE METABOLIC PROC.,PDHA1,Decrease,NUCLEOSIDE METABOLIC PROC.,5,GO:1901135
CARBOHYDRATE DERIVATIVE METABOLIC PROC.,AMPD2,Increase,NUCLEOSIDE METABOLIC PROC.,5,GO:1901135
CARBOHYDRATE DERIVATIVE METABOLIC PROC.,GK,Decrease,NUCLEOSIDE METABOLIC PROC.,5,GO:1901135
CARBOHYDRATE DERIVATIVE METABOLIC PROC.,GART,Increase,NUCLEOSIDE METABOLIC PROC.,5,GO:1901135
CARBOHYDRATE DERIVATIVE METABOLIC PROC.,ADCY1,Decrease,NUCLEOSIDE METABOLIC PROC.,5,GO:1901135
CARBOHYDRATE DERIVATIVE METABOLIC PROC.,MACROD2,Increase,NUCLEOSIDE METABOLIC PROC.,5,GO:1901135
CARBOHYDRATE DERIVATIVE METABOLIC PROC.,ESYT2,Decrease,NUCLEOSIDE METABOLIC PROC.,5,GO:1901135
CARBOHYDRATE DERIVATIVE METABOLIC PROC.,MACROD1,Increase,NUCLEOSIDE METABOLIC PROC.,5,GO:1901135
CARBOHYDRATE DERIVATIVE METABOLIC PROC.,SPOCK3,Increase,NUCLEOSIDE METABOLIC PROC.,5,GO:1901135
CARBOHYDRATE DERIVATIVE METABOLIC PROC.,APP,Increase,NUCLEOSIDE METABOLIC PROC.,5,GO:1901135
CARBOHYDRATE DERIVATIVE METABOLIC PROC.,APCS,Increase,NUCLEOSIDE METABOLIC PROC.,5,GO:1901135
CARBOHYDRATE DERIVATIVE METABOLIC PROC.,DPM1,Decrease,NUCLEOSIDE METABOLIC PROC.,5,GO:1901135
CARBOHYDRATE DERIVATIVE METABOLIC PROC.,AK1,Increase,NUCLEOSIDE METABOLIC PROC.,5,GO:1901135
CARBOHYDRATE DERIVATIVE METABOLIC PROC.,PDE4A,Decrease,NUCLEOSIDE METABOLIC PROC.,5,GO:1901135
CARBOHYDRATE DERIVATIVE METABOLIC PROC.,TKT,Increase,NUCLEOSIDE METABOLIC PROC.,5,GO:1901135
CARBOHYDRATE METABOLIC PROC.,PDK3,Decrease,CARBOHYDRATE METABOLIC PROC.,5,GO:0005975
CARBOHYDRATE METABOLIC PROC.,PDHA1,Decrease,CARBOHYDRATE METABOLIC PROC.,5,GO:0005975
CARBOHYDRATE METABOLIC PROC.,GK,Decrease,CARBOHYDRATE METABOLIC PROC.,5,GO:0005975
CARBOHYDRATE METABOLIC PROC.,APP,Increase,CARBOHYDRATE METABOLIC PROC.,5,GO:0005975
CARBOHYDRATE METABOLIC PROC.,MTMR7,Decrease,CARBOHYDRATE METABOLIC PROC.,5,GO:0005975
CARBOHYDRATE METABOLIC PROC.,TKT,Increase,CARBOHYDRATE METABOLIC PROC.,5,GO:0005975
CARBOHYDRATE METABOLIC PROC.,GSK3B,Decrease,CARBOHYDRATE METABOLIC PROC.,5,GO:0005975
CARBOHYDRATE METABOLIC PROC.,PPIP5K2,Decrease,CARBOHYDRATE METABOLIC PROC.,5,GO:0005975
CARDIAC CONDUCTION,ATP1A3,Decrease,CARDIAC CONDUCTION,8,GO:0061337
CARDIAC CONDUCTION,ATP1B1,Decrease,CARDIAC CONDUCTION,8,GO:0061337
CARDIAC CONDUCTION,ATP2A2,Decrease,CARDIAC CONDUCTION,8,GO:0061337
CARDIAC CONDUCTION,SLC8A3,Decrease,CARDIAC CONDUCTION,8,GO:0061337
CATION TRANSMEMBRANE TRANSPORT,IL1RAPL1,Decrease,CATION TRANSPORT,8,GO:0098655
CATION TRANSMEMBRANE TRANSPORT,PLCD1,Increase,CATION TRANSPORT,8,GO:0098655
CATION TRANSMEMBRANE TRANSPORT,KCNH1,Decrease,CATION TRANSPORT,8,GO:0098655
CATION TRANSMEMBRANE TRANSPORT,NNT,Decrease,CATION TRANSPORT,8,GO:0098655
CATION TRANSMEMBRANE TRANSPORT,ACTN2,Decrease,CATION TRANSPORT,8,GO:0098655
CATION TRANSMEMBRANE TRANSPORT,ATP1A3,Decrease,CATION TRANSPORT,8,GO:0098655
CATION TRANSMEMBRANE TRANSPORT,ATP2A2,Decrease,CATION TRANSPORT,8,GO:0098655
CATION TRANSMEMBRANE TRANSPORT,ARC,Decrease,CATION TRANSPORT,8,GO:0098655
CATION TRANSMEMBRANE TRANSPORT,ATP1B1,Decrease,CATION TRANSPORT,8,GO:0098655
CATION TRANSMEMBRANE TRANSPORT,ATP8A1,Increase,CATION TRANSPORT,8,GO:0098655
CATION TRANSMEMBRANE TRANSPORT,SPG7,Decrease,CATION TRANSPORT,8,GO:0098655
CATION TRANSMEMBRANE TRANSPORT,FHL1,Increase,CATION TRANSPORT,8,GO:0098655
CATION TRANSMEMBRANE TRANSPORT,KCNAB1,Decrease,CATION TRANSPORT,8,GO:0098655
CATION TRANSMEMBRANE TRANSPORT,PLCL2,Decrease,CATION TRANSPORT,8,GO:0098655
CATION TRANSMEMBRANE TRANSPORT,APP,Increase,CATION TRANSPORT,8,GO:0098655
CATION TRANSMEMBRANE TRANSPORT,SLC8A3,Decrease,CATION TRANSPORT,8,GO:0098655
CATION TRANSMEMBRANE TRANSPORT,SLC4A10,Decrease,CATION TRANSPORT,8,GO:0098655
CATION TRANSPORT,PLCD1,Increase,CATION TRANSPORT,8,GO:0006812
CATION TRANSPORT,SLC8A3,Decrease,CATION TRANSPORT,8,GO:0006812
CATION TRANSPORT,ATP1A3,Decrease,CATION TRANSPORT,8,GO:0006812
CATION TRANSPORT,KCNH1,Decrease,CATION TRANSPORT,8,GO:0006812
CATION TRANSPORT,ARC,Decrease,CATION TRANSPORT,8,GO:0006812
CATION TRANSPORT,ATP8A1,Increase,CATION TRANSPORT,8,GO:0006812
CATION TRANSPORT,ATP1B1,Decrease,CATION TRANSPORT,8,GO:0006812
CATION TRANSPORT,SYT12,Decrease,CATION TRANSPORT,8,GO:0006812
CATION TRANSPORT,SLC4A10,Decrease,CATION TRANSPORT,8,GO:0006812
CATION TRANSPORT,SPG7,Decrease,CATION TRANSPORT,8,GO:0006812
CATION TRANSPORT,KCNAB1,Decrease,CATION TRANSPORT,8,GO:0006812
CATION TRANSPORT,SLC4A8,Decrease,CATION TRANSPORT,8,GO:0006812
CATION TRANSPORT,NNT,Decrease,CATION TRANSPORT,8,GO:0006812
CATION TRANSPORT,APP,Increase,CATION TRANSPORT,8,GO:0006812
CATION TRANSPORT,ACTN2,Decrease,CATION TRANSPORT,8,GO:0006812
CATION TRANSPORT,IL1RAPL1,Decrease,CATION TRANSPORT,8,GO:0006812
CATION TRANSPORT,ATP2A2,Decrease,CATION TRANSPORT,8,GO:0006812
CATION TRANSPORT,PLCL2,Decrease,CATION TRANSPORT,8,GO:0006812
CATION TRANSPORT,RAB3B,Decrease,CATION TRANSPORT,8,GO:0006812
CATION TRANSPORT,FHL1,Increase,CATION TRANSPORT,8,GO:0006812
CELL ACTIVATION,DGKG,Increase,CELL ACTIVATION,3,GO:0001775
CELL ACTIVATION,HSPB1,Increase,CELL ACTIVATION,3,GO:0001775
CELL ACTIVATION,DGKD,Decrease,CELL ACTIVATION,3,GO:0001775
CELL ACTIVATION,APP,Increase,CELL ACTIVATION,3,GO:0001775
CELL ACTIVATION,PPIA,Increase,CELL ACTIVATION,3,GO:0001775
CELL ACTIVATION,ATP8A1,Increase,CELL ACTIVATION,3,GO:0001775
CELL ACTIVATION,DGKZ,Decrease,CELL ACTIVATION,3,GO:0001775
CELL ACTIVATION,DGKI,Decrease,CELL ACTIVATION,3,GO:0001775
CELL ACTIVATION,MDK,Increase,CELL ACTIVATION,3,GO:0001775
CELL ACTIVATION,LTA4H,Increase,CELL ACTIVATION,3,GO:0001775
CELL ACTIVATION,DGKH,Decrease,CELL ACTIVATION,3,GO:0001775
CELL ACTIVATION,CHGA,Increase,CELL ACTIVATION,3,GO:0001775
CELL ACTIVATION,SDCBP,Decrease,CELL ACTIVATION,3,GO:0001775
CELL ACTIVATION,PLCL2,Decrease,CELL ACTIVATION,3,GO:0001775
CELL ACTIVATION,CAMK4,Decrease,CELL ACTIVATION,3,GO:0001775
CELL ACTIVATION INVOLVED IN IMMUNE RESPONSE,PPIA,Increase,CELL ACTIVATION,3,GO:0002263
CELL ACTIVATION INVOLVED IN IMMUNE RESPONSE,CHGA,Increase,CELL ACTIVATION,3,GO:0002263
CELL ACTIVATION INVOLVED IN IMMUNE RESPONSE,ATP8A1,Increase,CELL ACTIVATION,3,GO:0002263
CELL ACTIVATION INVOLVED IN IMMUNE RESPONSE,LTA4H,Increase,CELL ACTIVATION,3,GO:0002263
CELL ACTIVATION INVOLVED IN IMMUNE RESPONSE,APP,Increase,CELL ACTIVATION,3,GO:0002263
CELL ACTIVATION INVOLVED IN IMMUNE RESPONSE,SDCBP,Decrease,CELL ACTIVATION,3,GO:0002263
CELL ACTIVATION INVOLVED IN IMMUNE RESPONSE,PLCL2,Decrease,CELL ACTIVATION,3,GO:0002263
CELL ACTIVATION INVOLVED IN IMMUNE RESPONSE,MDK,Increase,CELL ACTIVATION,3,GO:0002263
CELL CHEMOTAXIS,CHGA,Increase,REG OF LEUKOCYTE MIGRATION,3,GO:0060326
CELL CHEMOTAXIS,HSPB1,Increase,REG OF LEUKOCYTE MIGRATION,3,GO:0060326
CELL CHEMOTAXIS,FLT1,Increase,REG OF LEUKOCYTE MIGRATION,3,GO:0060326
CELL CHEMOTAXIS,MDK,Increase,REG OF LEUKOCYTE MIGRATION,3,GO:0060326
CELL CHEMOTAXIS,SLIT2,Increase,REG OF LEUKOCYTE MIGRATION,3,GO:0060326
CELL CYCLE G2 M PHASE TRANSITION,APP,Increase,REG OF CELL CYCLE PROC.,1,GO:0044839
CELL CYCLE G2 M PHASE TRANSITION,BRSK1,Decrease,REG OF CELL CYCLE PROC.,1,GO:0044839
CELL CYCLE G2 M PHASE TRANSITION,FHL1,Increase,REG OF CELL CYCLE PROC.,1,GO:0044839
CELL CYCLE PHASE TRANSITION,APP,Increase,REG OF CELL CYCLE PROC.,1,GO:0044770
CELL CYCLE PHASE TRANSITION,FHL1,Increase,REG OF CELL CYCLE PROC.,1,GO:0044770
CELL CYCLE PHASE TRANSITION,BRSK1,Decrease,REG OF CELL CYCLE PROC.,1,GO:0044770
CELL CYCLE PHASE TRANSITION,BUB3,Increase,REG OF CELL CYCLE PROC.,1,GO:0044770
CELLULAR ALDEHYDE METABOLIC PROC.,TKT,Increase,CELLULAR ALDEHYDE METABOLIC PROC.,5,GO:0006081
CELLULAR AMINO ACID METABOLIC PROC.,GART,Increase,SULFUR AMINO ACID METABOLIC PROC.,3,GO:0006520
CELLULAR METABOLIC COMPOUND SALVAGE,AMPD2,Increase,CELLULAR METABOLIC COMPOUND SALVAGE,5,GO:0043094
CELLULAR MODIFIED AMINO ACID BIOSYNTHETIC PROC.,GART,Increase,CELLULAR MODIFIED AMINO ACID BIOSYNTHETIC PROC.,3,GO:0042398
CELLULAR MODIFIED AMINO ACID BIOSYNTHETIC PROC.,OPLAH,Increase,CELLULAR MODIFIED AMINO ACID BIOSYNTHETIC PROC.,3,GO:0042398
CELLULAR RESPIRATION,NDUFB3,Decrease,OXIDATIVE PHOSPHORYLATION,2,GO:0045333
CELLULAR RESPIRATION,NDUFV1,Decrease,OXIDATIVE PHOSPHORYLATION,2,GO:0045333
CELLULAR RESPIRATION,PDHA1,Decrease,OXIDATIVE PHOSPHORYLATION,2,GO:0045333
CELLULAR RESPIRATION,NNT,Decrease,OXIDATIVE PHOSPHORYLATION,2,GO:0045333
CELLULAR RESPONSE TO CADMIUM ION,MT1E,Increase,CELLULAR RESPONSE TO CADMIUM ION,1,GO:0071276
CELLULAR RESPONSE TO CADMIUM ION,MT2A,Increase,CELLULAR RESPONSE TO CADMIUM ION,1,GO:0071276
CELLULAR TRANSITION METAL ION HOMEOSTASIS,MT2A,Increase,CELLULAR IRON ION HOMEOSTASIS,5,GO:0046916
CELLULAR TRANSITION METAL ION HOMEOSTASIS,APP,Increase,CELLULAR IRON ION HOMEOSTASIS,5,GO:0046916
CELLULAR TRANSITION METAL ION HOMEOSTASIS,MT1E,Increase,CELLULAR IRON ION HOMEOSTASIS,5,GO:0046916
CHEMICAL SYNAPTIC TRANSMISSION POSTSYNAPTIC,DGKI,Decrease,POSITIVE REG OF NERVOUS SYSTEM PROC.,7,GO:0099565
CHEMICAL SYNAPTIC TRANSMISSION POSTSYNAPTIC,GSK3B,Decrease,POSITIVE REG OF NERVOUS SYSTEM PROC.,7,GO:0099565
CHEMICAL SYNAPTIC TRANSMISSION POSTSYNAPTIC,APP,Increase,POSITIVE REG OF NERVOUS SYSTEM PROC.,7,GO:0099565
CHROMOSOME ORGANIZATION,RBBP4,Increase,DNA GEOMETRIC CHANGE,1,GO:0051276
CHROMOSOME ORGANIZATION,GAR1,Increase,DNA GEOMETRIC CHANGE,1,GO:0051276
CHROMOSOME ORGANIZATION,BUB3,Increase,DNA GEOMETRIC CHANGE,1,GO:0051276
CHROMOSOME ORGANIZATION,PRMT8,Decrease,DNA GEOMETRIC CHANGE,1,GO:0051276
CYTOKINE MEDIATED SIG PATHWAY,MT2A,Increase,CYTOKINE MEDIATED SIG PATHWAY,5,GO:0019221
CYTOKINE MEDIATED SIG PATHWAY,CFL1,Increase,CYTOKINE MEDIATED SIG PATHWAY,5,GO:0019221
CYTOKINE MEDIATED SIG PATHWAY,PPIA,Increase,CYTOKINE MEDIATED SIG PATHWAY,5,GO:0019221
CYTOKINE MEDIATED SIG PATHWAY,SLIT2,Increase,CYTOKINE MEDIATED SIG PATHWAY,5,GO:0019221
CYTOKINE MEDIATED SIG PATHWAY,AGPAT1,Decrease,CYTOKINE MEDIATED SIG PATHWAY,5,GO:0019221
DETOXIFICATION,NNT,Decrease,DETOXIFICATION,5,GO:0098754
DETOXIFICATION,MT1E,Increase,DETOXIFICATION,5,GO:0098754
DETOXIFICATION,TXNRD1,Increase,DETOXIFICATION,5,GO:0098754
DETOXIFICATION,MT2A,Increase,DETOXIFICATION,5,GO:0098754
DICARBOXYLIC ACID TRANSPORT,NF1,Decrease,DICARBOXYLIC ACID TRANSPORT,8,GO:0006835
DNA BIOSYNTHETIC PROC.,GAR1,Increase,RNA DEPENDENT DNA BIOSYNTHETIC PROC.,1,GO:0071897
DNA BIOSYNTHETIC PROC.,PPIA,Increase,RNA DEPENDENT DNA BIOSYNTHETIC PROC.,1,GO:0071897
ELECTRON TRANSPORT CHAIN,NDUFB3,Decrease,OXIDATIVE PHOSPHORYLATION,2,GO:0022900
ELECTRON TRANSPORT CHAIN,TXNRD1,Increase,OXIDATIVE PHOSPHORYLATION,2,GO:0022900
ELECTRON TRANSPORT CHAIN,NDUFV1,Decrease,OXIDATIVE PHOSPHORYLATION,2,GO:0022900
ENERGY DERIVATION BY OXIDATION OF ORGANIC COMPOUNDS,PDHA1,Decrease,OXIDATIVE PHOSPHORYLATION,2,GO:0015980
ENERGY DERIVATION BY OXIDATION OF ORGANIC COMPOUNDS,NNT,Decrease,OXIDATIVE PHOSPHORYLATION,2,GO:0015980
ENERGY DERIVATION BY OXIDATION OF ORGANIC COMPOUNDS,NDUFV1,Decrease,OXIDATIVE PHOSPHORYLATION,2,GO:0015980
ENERGY DERIVATION BY OXIDATION OF ORGANIC COMPOUNDS,NDUFB3,Decrease,OXIDATIVE PHOSPHORYLATION,2,GO:0015980
ENERGY DERIVATION BY OXIDATION OF ORGANIC COMPOUNDS,GSK3B,Decrease,OXIDATIVE PHOSPHORYLATION,2,GO:0015980
EPITHELIAL CELL APOPTOTIC PROC.,MDK,Increase,ENDOTHELIAL CELL APOPTOTIC PROC.,1,GO:1904019
EPITHELIAL CELL DEVELOPMENT,FAT1,Increase,ENDOTHELIAL CELL DEVELOPMENT,6,GO:0002064
EPITHELIAL CELL DEVELOPMENT,GSK3B,Decrease,ENDOTHELIAL CELL DEVELOPMENT,6,GO:0002064
GAMMA AMINOBUTYRIC ACID SIG PATHWAY,PLCL2,Decrease,GAMMA AMINOBUTYRIC ACID SIG PATHWAY,7,GO:0007214
GLUCOSE 6 PHOSPHATE METABOLIC PROC.,TKT,Increase,NUCLEOSIDE METABOLIC PROC.,5,GO:0051156
GLUTAMATE RECEPTOR SIG PATHWAY,APP,Increase,GLUTAMATE RECEPTOR SIG PATHWAY,7,GO:0007215
GLUTAMATE RECEPTOR SIG PATHWAY,ACTN2,Decrease,GLUTAMATE RECEPTOR SIG PATHWAY,7,GO:0007215
GLUTAMATE RECEPTOR SIG PATHWAY,DAGLB,Increase,GLUTAMATE RECEPTOR SIG PATHWAY,7,GO:0007215
GLUTAMATE RECEPTOR SIG PATHWAY,ARC,Decrease,GLUTAMATE RECEPTOR SIG PATHWAY,7,GO:0007215
GLUTAMATE SECRETION,NF1,Decrease,DICARBOXYLIC ACID TRANSPORT,8,GO:0014047
GLYCOSYL COMPOUND METABOLIC PROC.,MACROD1,Increase,NUCLEOSIDE METABOLIC PROC.,5,GO:1901657
GLYCOSYL COMPOUND METABOLIC PROC.,MACROD2,Increase,NUCLEOSIDE METABOLIC PROC.,5,GO:1901657
GRANULOCYTE MIGRATION,MDK,Increase,MONONUCLEAR CELL MIGRATION,3,GO:0097530
GRANULOCYTE MIGRATION,SLIT2,Increase,MONONUCLEAR CELL MIGRATION,3,GO:0097530
HEMATOPOIETIC PROGENITOR CELL DIFFERENTIATION,SLC8A3,Decrease,HEMATOPOIETIC PROGENITOR CELL DIFFERENTIATION,5,GO:0002244
HETEROPHILIC CELL CELL ADHESION VIA PLASMA MEMBRANE CELL ADHESION MOLECULES,TENM4,Decrease,HETEROPHILIC CELL CELL ADHESION VIA PLASMA MEMBRANE CELL ADHESION MOLECULES,10,GO:0007157
HETEROPHILIC CELL CELL ADHESION VIA PLASMA MEMBRANE CELL ADHESION MOLECULES,IL1RAPL1,Decrease,HETEROPHILIC CELL CELL ADHESION VIA PLASMA MEMBRANE CELL ADHESION MOLECULES,10,GO:0007157
ICOSANOID METABOLIC PROC.,LTA4H,Increase,ICOSANOID METABOLIC PROC.,3,GO:0006690
ICOSANOID METABOLIC PROC.,DAGLB,Increase,ICOSANOID METABOLIC PROC.,3,GO:0006690
IMMUNE EFFECTOR PROC.,APP,Increase,IMMUNE EFFECTOR PROC.,3,GO:0002252
IMMUNE EFFECTOR PROC.,PLCL2,Decrease,IMMUNE EFFECTOR PROC.,3,GO:0002252
IMMUNE EFFECTOR PROC.,PPIA,Increase,IMMUNE EFFECTOR PROC.,3,GO:0002252
IMMUNE EFFECTOR PROC.,APCS,Increase,IMMUNE EFFECTOR PROC.,3,GO:0002252
IMMUNE EFFECTOR PROC.,ATP8A1,Increase,IMMUNE EFFECTOR PROC.,3,GO:0002252
IMMUNE EFFECTOR PROC.,CHGA,Increase,IMMUNE EFFECTOR PROC.,3,GO:0002252
IMMUNE EFFECTOR PROC.,HTRA1,Increase,IMMUNE EFFECTOR PROC.,3,GO:0002252
IMMUNE EFFECTOR PROC.,SDCBP,Decrease,IMMUNE EFFECTOR PROC.,3,GO:0002252
IMMUNE EFFECTOR PROC.,LTA4H,Increase,IMMUNE EFFECTOR PROC.,3,GO:0002252
IMMUNE EFFECTOR PROC.,MDK,Increase,IMMUNE EFFECTOR PROC.,3,GO:0002252
IMMUNE RESPONSE REGULATING CELL SURFACE RECEPTOR SIG PATHWAY,PLCL2,Decrease,ACTIVATION OF IMMUNE RESPONSE,1,GO:0002768
IMMUNE RESPONSE REGULATING SIG PATHWAY,PLCL2,Decrease,ACTIVATION OF IMMUNE RESPONSE,1,GO:0002764
IMMUNE RESPONSE REGULATING SIG PATHWAY,GRAMD4,Decrease,ACTIVATION OF IMMUNE RESPONSE,1,GO:0002764
IMPORT ACROSS PLASMA MEMBRANE,SLC8A3,Decrease,IMPORT ACROSS PLASMA MEMBRANE,8,GO:0098739
IMPORT ACROSS PLASMA MEMBRANE,ATP1A3,Decrease,IMPORT ACROSS PLASMA MEMBRANE,8,GO:0098739
IMPORT ACROSS PLASMA MEMBRANE,ATP1B1,Decrease,IMPORT ACROSS PLASMA MEMBRANE,8,GO:0098739
INNATE IMMUNE RESPONSE,APP,Increase,ACTIVATION OF INNATE IMMUNE RESPONSE,1,GO:0045087
INNATE IMMUNE RESPONSE,GRAMD4,Decrease,ACTIVATION OF INNATE IMMUNE RESPONSE,1,GO:0045087
INNATE IMMUNE RESPONSE,ARHGEF2,Decrease,ACTIVATION OF INNATE IMMUNE RESPONSE,1,GO:0045087
INNATE IMMUNE RESPONSE,MT2A,Increase,ACTIVATION OF INNATE IMMUNE RESPONSE,1,GO:0045087
INNATE IMMUNE RESPONSE,CHGA,Increase,ACTIVATION OF INNATE IMMUNE RESPONSE,1,GO:0045087
INNATE IMMUNE RESPONSE,APCS,Increase,ACTIVATION OF INNATE IMMUNE RESPONSE,1,GO:0045087
INNATE IMMUNE RESPONSE,MAP4K2,Decrease,ACTIVATION OF INNATE IMMUNE RESPONSE,1,GO:0045087
INORGANIC ION IMPORT ACROSS PLASMA MEMBRANE,ATP1A3,Decrease,IMPORT ACROSS PLASMA MEMBRANE,8,GO:0099587
INORGANIC ION IMPORT ACROSS PLASMA MEMBRANE,SLC8A3,Decrease,IMPORT ACROSS PLASMA MEMBRANE,8,GO:0099587
INORGANIC ION IMPORT ACROSS PLASMA MEMBRANE,ATP1B1,Decrease,IMPORT ACROSS PLASMA MEMBRANE,8,GO:0099587
INORGANIC ION TRANSMEMBRANE TRANSPORT,SLC8A3,Decrease,CATION TRANSPORT,8,GO:0098660
INORGANIC ION TRANSMEMBRANE TRANSPORT,SLC4A10,Decrease,CATION TRANSPORT,8,GO:0098660
INORGANIC ION TRANSMEMBRANE TRANSPORT,ATP1A3,Decrease,CATION TRANSPORT,8,GO:0098660
INORGANIC ION TRANSMEMBRANE TRANSPORT,PLCL2,Decrease,CATION TRANSPORT,8,GO:0098660
INORGANIC ION TRANSMEMBRANE TRANSPORT,IL1RAPL1,Decrease,CATION TRANSPORT,8,GO:0098660
INORGANIC ION TRANSMEMBRANE TRANSPORT,ACTN2,Decrease,CATION TRANSPORT,8,GO:0098660
INORGANIC ION TRANSMEMBRANE TRANSPORT,SPG7,Decrease,CATION TRANSPORT,8,GO:0098660
INORGANIC ION TRANSMEMBRANE TRANSPORT,NNT,Decrease,CATION TRANSPORT,8,GO:0098660
INORGANIC ION TRANSMEMBRANE TRANSPORT,PLCD1,Increase,CATION TRANSPORT,8,GO:0098660
INORGANIC ION TRANSMEMBRANE TRANSPORT,KCNAB1,Decrease,CATION TRANSPORT,8,GO:0098660
INORGANIC ION TRANSMEMBRANE TRANSPORT,KCNH1,Decrease,CATION TRANSPORT,8,GO:0098660
INORGANIC ION TRANSMEMBRANE TRANSPORT,ATP1B1,Decrease,CATION TRANSPORT,8,GO:0098660
INORGANIC ION TRANSMEMBRANE TRANSPORT,FHL1,Increase,CATION TRANSPORT,8,GO:0098660
INORGANIC ION TRANSMEMBRANE TRANSPORT,ATP2A2,Decrease,CATION TRANSPORT,8,GO:0098660
INTRASPECIES INTERACTION BETWEEN ORGANISMS,KALRN,Decrease,INTRASPECIES INTERACTION BETWEEN ORGANISMS,7,GO:0051703
ION TRANSMEMBRANE TRANSPORT,APP,Increase,CATION TRANSPORT,8,GO:0034220
ION TRANSMEMBRANE TRANSPORT,SLC8A3,Decrease,CATION TRANSPORT,8,GO:0034220
ION TRANSMEMBRANE TRANSPORT,SLC4A8,Decrease,CATION TRANSPORT,8,GO:0034220
ION TRANSMEMBRANE TRANSPORT,FHL1,Increase,CATION TRANSPORT,8,GO:0034220
ION TRANSMEMBRANE TRANSPORT,ATP8A1,Increase,CATION TRANSPORT,8,GO:0034220
ION TRANSMEMBRANE TRANSPORT,ATP1A3,Decrease,CATION TRANSPORT,8,GO:0034220
ION TRANSMEMBRANE TRANSPORT,KCNH1,Decrease,CATION TRANSPORT,8,GO:0034220
ION TRANSMEMBRANE TRANSPORT,ATP1B1,Decrease,CATION TRANSPORT,8,GO:0034220
ION TRANSMEMBRANE TRANSPORT,KCNAB1,Decrease,CATION TRANSPORT,8,GO:0034220
ION TRANSMEMBRANE TRANSPORT,IL1RAPL1,Decrease,CATION TRANSPORT,8,GO:0034220
ION TRANSMEMBRANE TRANSPORT,SPG7,Decrease,CATION TRANSPORT,8,GO:0034220
ION TRANSMEMBRANE TRANSPORT,SLC4A10,Decrease,CATION TRANSPORT,8,GO:0034220
ION TRANSMEMBRANE TRANSPORT,NNT,Decrease,CATION TRANSPORT,8,GO:0034220
ION TRANSMEMBRANE TRANSPORT,ACTN2,Decrease,CATION TRANSPORT,8,GO:0034220
ION TRANSMEMBRANE TRANSPORT,ATP2A2,Decrease,CATION TRANSPORT,8,GO:0034220
ION TRANSMEMBRANE TRANSPORT,PLCD1,Increase,CATION TRANSPORT,8,GO:0034220
ION TRANSMEMBRANE TRANSPORT,ARC,Decrease,CATION TRANSPORT,8,GO:0034220
ION TRANSMEMBRANE TRANSPORT,PLCL2,Decrease,CATION TRANSPORT,8,GO:0034220
LEUKOCYTE CHEMOTAXIS,MDK,Increase,REG OF LEUKOCYTE MIGRATION,3,GO:0030595
LEUKOCYTE CHEMOTAXIS,CHGA,Increase,REG OF LEUKOCYTE MIGRATION,3,GO:0030595
LEUKOCYTE CHEMOTAXIS,FLT1,Increase,REG OF LEUKOCYTE MIGRATION,3,GO:0030595
LEUKOCYTE CHEMOTAXIS,SLIT2,Increase,REG OF LEUKOCYTE MIGRATION,3,GO:0030595
LEUKOCYTE MEDIATED IMMUNITY,ATP8A1,Increase,IMMUNE EFFECTOR PROC.,3,GO:0002443
LEUKOCYTE MEDIATED IMMUNITY,CHGA,Increase,IMMUNE EFFECTOR PROC.,3,GO:0002443
LEUKOCYTE MEDIATED IMMUNITY,LTA4H,Increase,IMMUNE EFFECTOR PROC.,3,GO:0002443
LEUKOCYTE MEDIATED IMMUNITY,PPIA,Increase,IMMUNE EFFECTOR PROC.,3,GO:0002443
LEUKOCYTE MEDIATED IMMUNITY,APCS,Increase,IMMUNE EFFECTOR PROC.,3,GO:0002443
LEUKOCYTE MEDIATED IMMUNITY,SDCBP,Decrease,IMMUNE EFFECTOR PROC.,3,GO:0002443
LEUKOCYTE MIGRATION,PPIA,Increase,REG OF LEUKOCYTE MIGRATION,3,GO:0050900
LEUKOCYTE MIGRATION,SLIT2,Increase,REG OF LEUKOCYTE MIGRATION,3,GO:0050900
LEUKOCYTE MIGRATION,APP,Increase,REG OF LEUKOCYTE MIGRATION,3,GO:0050900
LEUKOCYTE MIGRATION,FLT1,Increase,REG OF LEUKOCYTE MIGRATION,3,GO:0050900
LEUKOCYTE MIGRATION,CHGA,Increase,REG OF LEUKOCYTE MIGRATION,3,GO:0050900
LEUKOCYTE MIGRATION,ATP1B1,Decrease,REG OF LEUKOCYTE MIGRATION,3,GO:0050900
LEUKOCYTE MIGRATION,MDK,Increase,REG OF LEUKOCYTE MIGRATION,3,GO:0050900
LONG TERM SYNAPTIC DEPRESSION,ARC,Decrease,REG OF SYNAPTIC PLASTICITY,7,GO:0060292
LONG TERM SYNAPTIC DEPRESSION,DGKI,Decrease,REG OF SYNAPTIC PLASTICITY,7,GO:0060292
LONG TERM SYNAPTIC POTENTIATION,NF1,Decrease,REG OF SYNAPTIC PLASTICITY,7,GO:0060291
LONG TERM SYNAPTIC POTENTIATION,ARC,Decrease,REG OF SYNAPTIC PLASTICITY,7,GO:0060291
LONG TERM SYNAPTIC POTENTIATION,SLC8A3,Decrease,REG OF SYNAPTIC PLASTICITY,7,GO:0060291
LONG TERM SYNAPTIC POTENTIATION,APP,Increase,REG OF SYNAPTIC PLASTICITY,7,GO:0060291
LONG TERM SYNAPTIC POTENTIATION,ADCY1,Decrease,REG OF SYNAPTIC PLASTICITY,7,GO:0060291
LONG TERM SYNAPTIC POTENTIATION,GSK3B,Decrease,REG OF SYNAPTIC PLASTICITY,7,GO:0060291
LONG TERM SYNAPTIC POTENTIATION,SYT12,Decrease,REG OF SYNAPTIC PLASTICITY,7,GO:0060291
MESODERM DEVELOPMENT,TXNRD1,Increase,MESODERM DEVELOPMENT,6,GO:0007498
MITOCHONDRIAL CALCIUM ION TRANSMEMBRANE TRANSPORT,SLC8A3,Decrease,CATION TRANSPORT,8,GO:0006851
MITOCHONDRIAL CALCIUM ION TRANSMEMBRANE TRANSPORT,SPG7,Decrease,CATION TRANSPORT,8,GO:0006851
MITOCHONDRIAL ELECTRON TRANSPORT NADH TO UBIQUINONE,NDUFB3,Decrease,OXIDATIVE PHOSPHORYLATION,2,GO:0006120
MITOCHONDRIAL ELECTRON TRANSPORT NADH TO UBIQUINONE,NDUFV1,Decrease,OXIDATIVE PHOSPHORYLATION,2,GO:0006120
MITOCHONDRIAL MEMBRANE ORGANIZATION,GSK3B,Decrease,MITOCHONDRION ORGANIZATION,2,GO:0007006
MITOCHONDRIAL MEMBRANE ORGANIZATION,SPG7,Decrease,MITOCHONDRION ORGANIZATION,2,GO:0007006
MITOCHONDRIAL RESPIRATORY CHAIN COMPLEX ASSEMBLY,NDUFV1,Decrease,MITOCHONDRION ORGANIZATION,2,GO:0033108
MITOCHONDRIAL RESPIRATORY CHAIN COMPLEX ASSEMBLY,NDUFB3,Decrease,MITOCHONDRION ORGANIZATION,2,GO:0033108
MITOCHONDRION ORGANIZATION,GSK3B,Decrease,MITOCHONDRION ORGANIZATION,2,GO:0007005
MITOCHONDRION ORGANIZATION,CAMKK2,Decrease,MITOCHONDRION ORGANIZATION,2,GO:0007005
MITOCHONDRION ORGANIZATION,MTFP1,Decrease,MITOCHONDRION ORGANIZATION,2,GO:0007005
MITOCHONDRION ORGANIZATION,NDUFB3,Decrease,MITOCHONDRION ORGANIZATION,2,GO:0007005
MITOCHONDRION ORGANIZATION,NPEPPS,Increase,MITOCHONDRION ORGANIZATION,2,GO:0007005
MITOCHONDRION ORGANIZATION,NDUFV1,Decrease,MITOCHONDRION ORGANIZATION,2,GO:0007005
MITOCHONDRION ORGANIZATION,SPG7,Decrease,MITOCHONDRION ORGANIZATION,2,GO:0007005
MONONUCLEAR CELL MIGRATION,FLT1,Increase,MONONUCLEAR CELL MIGRATION,3,GO:0071674
MONONUCLEAR CELL MIGRATION,MDK,Increase,MONONUCLEAR CELL MIGRATION,3,GO:0071674
MONONUCLEAR CELL MIGRATION,SLIT2,Increase,MONONUCLEAR CELL MIGRATION,3,GO:0071674
MONOSACCHARIDE BIOSYNTHETIC PROC.,TKT,Increase,SMALL MOLECULE BIOSYNTHETIC PROC.,5,GO:0046364
MONOVALENT INORGANIC CATION TRANSPORT,FHL1,Increase,POTASSIUM ION TRANSPORT,8,GO:0015672
MONOVALENT INORGANIC CATION TRANSPORT,KCNH1,Decrease,POTASSIUM ION TRANSPORT,8,GO:0015672
MONOVALENT INORGANIC CATION TRANSPORT,SLC8A3,Decrease,POTASSIUM ION TRANSPORT,8,GO:0015672
MONOVALENT INORGANIC CATION TRANSPORT,SLC4A8,Decrease,POTASSIUM ION TRANSPORT,8,GO:0015672
MONOVALENT INORGANIC CATION TRANSPORT,ACTN2,Decrease,POTASSIUM ION TRANSPORT,8,GO:0015672
MONOVALENT INORGANIC CATION TRANSPORT,ATP1B1,Decrease,POTASSIUM ION TRANSPORT,8,GO:0015672
MONOVALENT INORGANIC CATION TRANSPORT,SLC4A10,Decrease,POTASSIUM ION TRANSPORT,8,GO:0015672
MONOVALENT INORGANIC CATION TRANSPORT,NNT,Decrease,POTASSIUM ION TRANSPORT,8,GO:0015672
MONOVALENT INORGANIC CATION TRANSPORT,ATP1A3,Decrease,POTASSIUM ION TRANSPORT,8,GO:0015672
MONOVALENT INORGANIC CATION TRANSPORT,ATP2A2,Decrease,POTASSIUM ION TRANSPORT,8,GO:0015672
MONOVALENT INORGANIC CATION TRANSPORT,KCNAB1,Decrease,POTASSIUM ION TRANSPORT,8,GO:0015672
MORPHOGENESIS OF A POLARIZED EPITHELIUM,BRSK1,Decrease,MORPHOGENESIS OF A POLARIZED EPITHELIUM,5,GO:0001738
MORPHOGENESIS OF A POLARIZED EPITHELIUM,CTHRC1,Increase,MORPHOGENESIS OF A POLARIZED EPITHELIUM,5,GO:0001738
MULTI ORGANISM CELLULAR PROC.,PPIA,Increase,MULTI ORGANISM CELLULAR PROC.,11,GO:0044764
MUSCLE CELL APOPTOTIC PROC.,MDK,Increase,MUSCLE CELL APOPTOTIC PROC.,1,GO:0010657
MUSCLE CELL MIGRATION,AAMP,Increase,MUSCLE CELL MIGRATION,3,GO:0014812
MUSCLE CELL MIGRATION,PLXNA1,Decrease,MUSCLE CELL MIGRATION,3,GO:0014812
MUSCLE CELL MIGRATION,SLIT2,Increase,MUSCLE CELL MIGRATION,3,GO:0014812
MUSCLE CELL MIGRATION,MDK,Increase,MUSCLE CELL MIGRATION,3,GO:0014812
MUSCLE CELL MIGRATION,IGFBP5,Increase,MUSCLE CELL MIGRATION,3,GO:0014812
MYELOID LEUKOCYTE ACTIVATION,CHGA,Increase,CELL ACTIVATION,3,GO:0002274
MYELOID LEUKOCYTE ACTIVATION,PPIA,Increase,CELL ACTIVATION,3,GO:0002274
MYELOID LEUKOCYTE ACTIVATION,SDCBP,Decrease,CELL ACTIVATION,3,GO:0002274
MYELOID LEUKOCYTE ACTIVATION,CAMK4,Decrease,CELL ACTIVATION,3,GO:0002274
MYELOID LEUKOCYTE ACTIVATION,APP,Increase,CELL ACTIVATION,3,GO:0002274
MYELOID LEUKOCYTE ACTIVATION,ATP8A1,Increase,CELL ACTIVATION,3,GO:0002274
MYELOID LEUKOCYTE ACTIVATION,LTA4H,Increase,CELL ACTIVATION,3,GO:0002274
MYELOID LEUKOCYTE MEDIATED IMMUNITY,SDCBP,Decrease,IMMUNE EFFECTOR PROC.,3,GO:0002444
MYELOID LEUKOCYTE MEDIATED IMMUNITY,LTA4H,Increase,IMMUNE EFFECTOR PROC.,3,GO:0002444
MYELOID LEUKOCYTE MEDIATED IMMUNITY,ATP8A1,Increase,IMMUNE EFFECTOR PROC.,3,GO:0002444
MYELOID LEUKOCYTE MEDIATED IMMUNITY,PPIA,Increase,IMMUNE EFFECTOR PROC.,3,GO:0002444
MYELOID LEUKOCYTE MEDIATED IMMUNITY,CHGA,Increase,IMMUNE EFFECTOR PROC.,3,GO:0002444
MYELOID LEUKOCYTE MIGRATION,FLT1,Increase,MONONUCLEAR CELL MIGRATION,3,GO:0097529
MYELOID LEUKOCYTE MIGRATION,SLIT2,Increase,MONONUCLEAR CELL MIGRATION,3,GO:0097529
MYELOID LEUKOCYTE MIGRATION,MDK,Increase,MONONUCLEAR CELL MIGRATION,3,GO:0097529
MYELOID LEUKOCYTE MIGRATION,CHGA,Increase,MONONUCLEAR CELL MIGRATION,3,GO:0097529
MYOFIBRIL ASSEMBLY,ACTN2,Decrease,MYOFIBRIL ASSEMBLY,11,GO:0030239
NADH DEHYDROGENASE COMPLEX ASSEMBLY,NDUFV1,Decrease,NADH DEHYDROGENASE COMPLEX ASSEMBLY,2,GO:0010257
NADH DEHYDROGENASE COMPLEX ASSEMBLY,NDUFB3,Decrease,NADH DEHYDROGENASE COMPLEX ASSEMBLY,2,GO:0010257
NADP METABOLIC PROC.,TKT,Increase,NADP METABOLIC PROC.,5,GO:0006739
NADP METABOLIC PROC.,NNT,Decrease,NADP METABOLIC PROC.,5,GO:0006739
NADPH REGENERATION,NNT,Decrease,NADP METABOLIC PROC.,5,GO:0006740
NADPH REGENERATION,TKT,Increase,NADP METABOLIC PROC.,5,GO:0006740
NEGATIVE REG OF ACTIN FILAMENT DEPOLYMERIZATION,CAPG,Increase,NEGATIVE REG OF ACTIN FILAMENT DEPOLYMERIZATION,4,GO:0030835
NEGATIVE REG OF ACTIN FILAMENT POLYMERIZATION,SLIT2,Increase,NEGATIVE REG OF ACTIN FILAMENT POLYMERIZATION,4,GO:0030837
NEGATIVE REG OF ACTIN FILAMENT POLYMERIZATION,CAPG,Increase,NEGATIVE REG OF ACTIN FILAMENT POLYMERIZATION,4,GO:0030837
NEGATIVE REG OF CATALYTIC ACTIVITY,SNX6,Increase,NEGATIVE REG OF PEPTIDASE ACTIVITY,3,GO:0043086
NEGATIVE REG OF CATALYTIC ACTIVITY,GSK3B,Decrease,NEGATIVE REG OF PEPTIDASE ACTIVITY,3,GO:0043086
NEGATIVE REG OF CATALYTIC ACTIVITY,DGKI,Decrease,NEGATIVE REG OF PEPTIDASE ACTIVITY,3,GO:0043086
NEGATIVE REG OF CATALYTIC ACTIVITY,HSPB1,Increase,NEGATIVE REG OF PEPTIDASE ACTIVITY,3,GO:0043086
NEGATIVE REG OF CATALYTIC ACTIVITY,APP,Increase,NEGATIVE REG OF PEPTIDASE ACTIVITY,3,GO:0043086
NEGATIVE REG OF CATALYTIC ACTIVITY,RNH1,Increase,NEGATIVE REG OF PEPTIDASE ACTIVITY,3,GO:0043086
NEGATIVE REG OF CATALYTIC ACTIVITY,UCHL1,Increase,NEGATIVE REG OF PEPTIDASE ACTIVITY,3,GO:0043086
NEGATIVE REG OF CATALYTIC ACTIVITY,SLIT2,Increase,NEGATIVE REG OF PEPTIDASE ACTIVITY,3,GO:0043086
NEGATIVE REG OF CATALYTIC ACTIVITY,APCS,Increase,NEGATIVE REG OF PEPTIDASE ACTIVITY,3,GO:0043086
NEGATIVE REG OF CATALYTIC ACTIVITY,SPOCK3,Increase,NEGATIVE REG OF PEPTIDASE ACTIVITY,3,GO:0043086
NEGATIVE REG OF CATALYTIC ACTIVITY,CD109,Increase,NEGATIVE REG OF PEPTIDASE ACTIVITY,3,GO:0043086
NEGATIVE REG OF CATALYTIC ACTIVITY,NF1,Decrease,NEGATIVE REG OF PEPTIDASE ACTIVITY,3,GO:0043086
NEGATIVE REG OF CELL CYCLE G2 M PHASE TRANSITION,BRSK1,Decrease,REG OF CELL CYCLE PROC.,1,GO:1902750
NEGATIVE REG OF CELL CYCLE G2 M PHASE TRANSITION,FHL1,Increase,REG OF CELL CYCLE PROC.,1,GO:1902750
NEGATIVE REG OF CELL CYCLE PHASE TRANSITION,FHL1,Increase,REG OF CELL CYCLE PROC.,1,GO:1901988
NEGATIVE REG OF CELL CYCLE PHASE TRANSITION,BUB3,Increase,REG OF CELL CYCLE PROC.,1,GO:1901988
NEGATIVE REG OF CELL CYCLE PHASE TRANSITION,BRSK1,Decrease,REG OF CELL CYCLE PROC.,1,GO:1901988
NEGATIVE REG OF CELL CYCLE PROC.,RBBP4,Increase,REG OF CELL CYCLE PROC.,1,GO:0010948
NEGATIVE REG OF CELL CYCLE PROC.,BRSK1,Decrease,REG OF CELL CYCLE PROC.,1,GO:0010948
NEGATIVE REG OF CELL CYCLE PROC.,FHL1,Increase,REG OF CELL CYCLE PROC.,1,GO:0010948
NEGATIVE REG OF CELL CYCLE PROC.,BUB3,Increase,REG OF CELL CYCLE PROC.,1,GO:0010948
NEGATIVE REG OF CELLULAR RESPONSE TO GROWTH FACTOR STIMULUS,CD109,Increase,RESPONSE TO GROWTH FACTOR,3,GO:0090288
NEGATIVE REG OF CELLULAR RESPONSE TO GROWTH FACTOR STIMULUS,SLIT2,Increase,RESPONSE TO GROWTH FACTOR,3,GO:0090288
NEGATIVE REG OF CELLULAR RESPONSE TO GROWTH FACTOR STIMULUS,SNX6,Increase,RESPONSE TO GROWTH FACTOR,3,GO:0090288
NEGATIVE REG OF CELLULAR RESPONSE TO GROWTH FACTOR STIMULUS,HTRA1,Increase,RESPONSE TO GROWTH FACTOR,3,GO:0090288
NEGATIVE REG OF CELLULAR RESPONSE TO TRANSFORMING GROWTH FACTOR BETA STIMULUS,SNX6,Increase,RESPONSE TO GROWTH FACTOR,3,GO:1903845
NEGATIVE REG OF CELLULAR RESPONSE TO TRANSFORMING GROWTH FACTOR BETA STIMULUS,HTRA1,Increase,RESPONSE TO GROWTH FACTOR,3,GO:1903845
NEGATIVE REG OF CELLULAR RESPONSE TO TRANSFORMING GROWTH FACTOR BETA STIMULUS,CD109,Increase,RESPONSE TO GROWTH FACTOR,3,GO:1903845
NEGATIVE REG OF HYDROLASE ACTIVITY,SLIT2,Increase,NEGATIVE REG OF PEPTIDASE ACTIVITY,3,GO:0051346
NEGATIVE REG OF HYDROLASE ACTIVITY,GSK3B,Decrease,NEGATIVE REG OF PEPTIDASE ACTIVITY,3,GO:0051346
NEGATIVE REG OF HYDROLASE ACTIVITY,SPOCK3,Increase,NEGATIVE REG OF PEPTIDASE ACTIVITY,3,GO:0051346
NEGATIVE REG OF HYDROLASE ACTIVITY,APCS,Increase,NEGATIVE REG OF PEPTIDASE ACTIVITY,3,GO:0051346
NEGATIVE REG OF HYDROLASE ACTIVITY,DGKI,Decrease,NEGATIVE REG OF PEPTIDASE ACTIVITY,3,GO:0051346
NEGATIVE REG OF HYDROLASE ACTIVITY,CD109,Increase,NEGATIVE REG OF PEPTIDASE ACTIVITY,3,GO:0051346
NEGATIVE REG OF HYDROLASE ACTIVITY,APP,Increase,NEGATIVE REG OF PEPTIDASE ACTIVITY,3,GO:0051346
NEGATIVE REG OF PEPTIDASE ACTIVITY,SPOCK3,Increase,NEGATIVE REG OF PEPTIDASE ACTIVITY,3,GO:0010466
NEGATIVE REG OF PEPTIDASE ACTIVITY,CD109,Increase,NEGATIVE REG OF PEPTIDASE ACTIVITY,3,GO:0010466
NEGATIVE REG OF PEPTIDASE ACTIVITY,APP,Increase,NEGATIVE REG OF PEPTIDASE ACTIVITY,3,GO:0010466
NEGATIVE REG OF PROTEOLYSIS,APP,Increase,NEGATIVE REG OF PEPTIDASE ACTIVITY,3,GO:0045861
NEGATIVE REG OF PROTEOLYSIS,SPOCK3,Increase,NEGATIVE REG OF PEPTIDASE ACTIVITY,3,GO:0045861
NEGATIVE REG OF PROTEOLYSIS,CD109,Increase,NEGATIVE REG OF PEPTIDASE ACTIVITY,3,GO:0045861
NEGATIVE REG OF PROTEOLYSIS,SDCBP,Decrease,NEGATIVE REG OF PEPTIDASE ACTIVITY,3,GO:0045861
NEGATIVE REG OF RESPONSE TO BIOTIC STIMULUS,HTRA1,Increase,REG OF RESPONSE TO BIOTIC STIMULUS,3,GO:0002832
NEGATIVE REG OF TRANSMEMBRANE RECEPTOR PROTEIN SERINE THREONINE KINASE SIG PATHWAY,SNX6,Increase,TRANSMEMBRANE RECEPTOR PROTEIN SERINE THREONINE KINASE SIG PATHWAY,3,GO:0090101
NEGATIVE REG OF TRANSMEMBRANE RECEPTOR PROTEIN SERINE THREONINE KINASE SIG PATHWAY,CD109,Increase,TRANSMEMBRANE RECEPTOR PROTEIN SERINE THREONINE KINASE SIG PATHWAY,3,GO:0090101
NEGATIVE REG OF TRANSMEMBRANE RECEPTOR PROTEIN SERINE THREONINE KINASE SIG PATHWAY,HTRA1,Increase,TRANSMEMBRANE RECEPTOR PROTEIN SERINE THREONINE KINASE SIG PATHWAY,3,GO:0090101
NEUROTRANSMITTER RECEPTOR INTERNALIZATION,ARC,Decrease,NEUROTRANSMITTER RECEPTOR INTERNALIZATION,7,GO:0099590
NEUROTRANSMITTER SECRETION,BACE1,Increase,NEUROTRANSMITTER TRANSPORT,7,GO:0007269
NEUROTRANSMITTER SECRETION,BRSK1,Decrease,NEUROTRANSMITTER TRANSPORT,7,GO:0007269
NEUROTRANSMITTER SECRETION,SYT12,Decrease,NEUROTRANSMITTER TRANSPORT,7,GO:0007269
NEUROTRANSMITTER SECRETION,NF1,Decrease,NEUROTRANSMITTER TRANSPORT,7,GO:0007269
NEUROTRANSMITTER SECRETION,DGKI,Decrease,NEUROTRANSMITTER TRANSPORT,7,GO:0007269
NEUROTRANSMITTER SECRETION,RPH3A,Decrease,NEUROTRANSMITTER TRANSPORT,7,GO:0007269
NEUROTRANSMITTER SECRETION,GSK3B,Decrease,NEUROTRANSMITTER TRANSPORT,7,GO:0007269
NEUROTRANSMITTER SECRETION,ATP2A2,Decrease,NEUROTRANSMITTER TRANSPORT,7,GO:0007269
NEUROTRANSMITTER SECRETION,ADCY1,Decrease,NEUROTRANSMITTER TRANSPORT,7,GO:0007269
NEUROTRANSMITTER TRANSPORT,DGKI,Decrease,NEUROTRANSMITTER TRANSPORT,7,GO:0006836
NEUROTRANSMITTER TRANSPORT,ATP2A2,Decrease,NEUROTRANSMITTER TRANSPORT,7,GO:0006836
NEUROTRANSMITTER TRANSPORT,BACE1,Increase,NEUROTRANSMITTER TRANSPORT,7,GO:0006836
NEUROTRANSMITTER TRANSPORT,SYT12,Decrease,NEUROTRANSMITTER TRANSPORT,7,GO:0006836
NEUROTRANSMITTER TRANSPORT,RAB3B,Decrease,NEUROTRANSMITTER TRANSPORT,7,GO:0006836
NEUROTRANSMITTER TRANSPORT,NF1,Decrease,NEUROTRANSMITTER TRANSPORT,7,GO:0006836
NEUROTRANSMITTER TRANSPORT,RPH3A,Decrease,NEUROTRANSMITTER TRANSPORT,7,GO:0006836
NEUROTRANSMITTER TRANSPORT,BRSK1,Decrease,NEUROTRANSMITTER TRANSPORT,7,GO:0006836
NEUROTRANSMITTER TRANSPORT,ADCY1,Decrease,NEUROTRANSMITTER TRANSPORT,7,GO:0006836
NEUROTRANSMITTER TRANSPORT,GSK3B,Decrease,NEUROTRANSMITTER TRANSPORT,7,GO:0006836
NIK NF KAPPAB SIG,APP,Increase,NIK NF KAPPAB SIG,5,GO:0038061
NON CANONICAL WNT SIG PATHWAY,CTHRC1,Increase,NON CANONICAL WNT SIG PATHWAY,5,GO:0035567
NUCLEOSIDE DIPHOSPHATE METABOLIC PROC.,AK1,Increase,NUCLEOSIDE MONOPHOSPHATE BIOSYNTHETIC PROC.,5,GO:0009132
NUCLEOSIDE DIPHOSPHATE METABOLIC PROC.,APP,Increase,NUCLEOSIDE MONOPHOSPHATE BIOSYNTHETIC PROC.,5,GO:0009132
NUCLEOSIDE METABOLIC PROC.,MACROD1,Increase,NUCLEOSIDE METABOLIC PROC.,5,GO:0009116
NUCLEOSIDE METABOLIC PROC.,MACROD2,Increase,NUCLEOSIDE METABOLIC PROC.,5,GO:0009116
NUCLEOSIDE MONOPHOSPHATE BIOSYNTHETIC PROC.,AMPD2,Increase,NUCLEOSIDE MONOPHOSPHATE BIOSYNTHETIC PROC.,5,GO:0009124
NUCLEOSIDE MONOPHOSPHATE BIOSYNTHETIC PROC.,GART,Increase,NUCLEOSIDE MONOPHOSPHATE BIOSYNTHETIC PROC.,5,GO:0009124
NUCLEOSIDE MONOPHOSPHATE METABOLIC PROC.,AK1,Increase,OXIDATIVE PHOSPHORYLATION,2,GO:0009123
NUCLEOSIDE MONOPHOSPHATE METABOLIC PROC.,GART,Increase,OXIDATIVE PHOSPHORYLATION,2,GO:0009123
NUCLEOSIDE MONOPHOSPHATE METABOLIC PROC.,AMPD2,Increase,OXIDATIVE PHOSPHORYLATION,2,GO:0009123
NUCLEOTIDE PHOSPHORYLATION,AK1,Increase,NUCLEOSIDE MONOPHOSPHATE BIOSYNTHETIC PROC.,5,GO:0046939
NUCLEOTIDE PHOSPHORYLATION,APP,Increase,NUCLEOSIDE MONOPHOSPHATE BIOSYNTHETIC PROC.,5,GO:0046939
OXIDATIVE PHOSPHORYLATION,NDUFB3,Decrease,OXIDATIVE PHOSPHORYLATION,2,GO:0006119
OXIDATIVE PHOSPHORYLATION,NDUFV1,Decrease,OXIDATIVE PHOSPHORYLATION,2,GO:0006119
PIGMENT BIOSYNTHETIC PROC.,GART,Increase,PIGMENT BIOSYNTHETIC PROC.,5,GO:0046148
POSITIVE REG OF CHEMOTAXIS,MDK,Increase,REG OF LEUKOCYTE MIGRATION,3,GO:0050921
POSITIVE REG OF CHEMOTAXIS,SLIT2,Increase,REG OF LEUKOCYTE MIGRATION,3,GO:0050921
POSITIVE REG OF CHEMOTAXIS,HSPB1,Increase,REG OF LEUKOCYTE MIGRATION,3,GO:0050921
POSITIVE REG OF DEFENSE RESPONSE,MDK,Increase,ACTIVATION OF INNATE IMMUNE RESPONSE,1,GO:0031349
POSITIVE REG OF DEFENSE RESPONSE,GRAMD4,Decrease,ACTIVATION OF INNATE IMMUNE RESPONSE,1,GO:0031349
POSITIVE REG OF ESTABLISHMENT OF PROTEIN LOCALIZATION TO MITOCHONDRION,NPEPPS,Increase,REG OF ESTABLISHMENT OF PROTEIN LOCALIZATION TO MITOCHONDRION,4,GO:1903749
POSITIVE REG OF IMMUNE RESPONSE,GRAMD4,Decrease,ACTIVATION OF IMMUNE RESPONSE,1,GO:0050778
POSITIVE REG OF IMMUNE RESPONSE,PLCL2,Decrease,ACTIVATION OF IMMUNE RESPONSE,1,GO:0050778
POSITIVE REG OF IMMUNE RESPONSE,APCS,Increase,ACTIVATION OF IMMUNE RESPONSE,1,GO:0050778
POSITIVE REG OF IMMUNE SYSTEM PROC.,MDK,Increase,ACTIVATION OF IMMUNE RESPONSE,1,GO:0002684
POSITIVE REG OF IMMUNE SYSTEM PROC.,GRAMD4,Decrease,ACTIVATION OF IMMUNE RESPONSE,1,GO:0002684
POSITIVE REG OF IMMUNE SYSTEM PROC.,APCS,Increase,ACTIVATION OF IMMUNE RESPONSE,1,GO:0002684
POSITIVE REG OF IMMUNE SYSTEM PROC.,PLCL2,Decrease,ACTIVATION OF IMMUNE RESPONSE,1,GO:0002684
POSITIVE REG OF IMMUNE SYSTEM PROC.,APP,Increase,ACTIVATION OF IMMUNE RESPONSE,1,GO:0002684
POSITIVE REG OF LEUKOCYTE CHEMOTAXIS,MDK,Increase,REG OF LEUKOCYTE MIGRATION,3,GO:0002690
POSITIVE REG OF LEUKOCYTE MIGRATION,MDK,Increase,REG OF LEUKOCYTE MIGRATION,3,GO:0002687
POSITIVE REG OF LEUKOCYTE MIGRATION,APP,Increase,REG OF LEUKOCYTE MIGRATION,3,GO:0002687
POSITIVE REG OF LOCOMOTION,AAMP,Increase,REG OF LEUKOCYTE MIGRATION,3,GO:0040017
POSITIVE REG OF LOCOMOTION,ARHGEF2,Decrease,REG OF LEUKOCYTE MIGRATION,3,GO:0040017
POSITIVE REG OF LOCOMOTION,MDK,Increase,REG OF LEUKOCYTE MIGRATION,3,GO:0040017
POSITIVE REG OF LOCOMOTION,SDCBP,Decrease,REG OF LEUKOCYTE MIGRATION,3,GO:0040017
POSITIVE REG OF LOCOMOTION,IGFBP5,Increase,REG OF LEUKOCYTE MIGRATION,3,GO:0040017
POSITIVE REG OF LOCOMOTION,HSPB1,Increase,REG OF LEUKOCYTE MIGRATION,3,GO:0040017
POSITIVE REG OF LOCOMOTION,FLT1,Increase,REG OF LEUKOCYTE MIGRATION,3,GO:0040017
POSITIVE REG OF LOCOMOTION,APP,Increase,REG OF LEUKOCYTE MIGRATION,3,GO:0040017
POSITIVE REG OF LOCOMOTION,SLIT2,Increase,REG OF LEUKOCYTE MIGRATION,3,GO:0040017
POSITIVE REG OF LOCOMOTION,ATP8A1,Increase,REG OF LEUKOCYTE MIGRATION,3,GO:0040017
POSITIVE REG OF NERVOUS SYSTEM PROC.,TENM4,Decrease,POSITIVE REG OF NERVOUS SYSTEM PROC.,7,GO:0031646
POSITIVE REG OF NEUROTRANSMITTER TRANSPORT,RAB3B,Decrease,NEUROTRANSMITTER TRANSPORT,7,GO:0051590
POSITIVE REG OF RESPONSE TO BIOTIC STIMULUS,GRAMD4,Decrease,REG OF RESPONSE TO BIOTIC STIMULUS,3,GO:0002833
POSITIVE REG OF RESPONSE TO EXTERNAL STIMULUS,MDK,Increase,REG OF LEUKOCYTE MIGRATION,3,GO:0032103
POSITIVE REG OF RESPONSE TO EXTERNAL STIMULUS,SLIT2,Increase,REG OF LEUKOCYTE MIGRATION,3,GO:0032103
POSITIVE REG OF RESPONSE TO EXTERNAL STIMULUS,HSPB1,Increase,REG OF LEUKOCYTE MIGRATION,3,GO:0032103
POSITIVE REG OF RESPONSE TO EXTERNAL STIMULUS,GRAMD4,Decrease,REG OF LEUKOCYTE MIGRATION,3,GO:0032103
POSITIVE REG OF SMOOTH MUSCLE CELL MIGRATION,IGFBP5,Increase,MUSCLE CELL MIGRATION,3,GO:0014911
POSITIVE REG OF SMOOTH MUSCLE CELL MIGRATION,MDK,Increase,MUSCLE CELL MIGRATION,3,GO:0014911
POSITIVE REG OF VASCULATURE DEVELOPMENT,FLT1,Increase,POSITIVE REG OF VASCULATURE DEVELOPMENT,3,GO:1904018
POSITIVE REG OF VASCULATURE DEVELOPMENT,MDK,Increase,POSITIVE REG OF VASCULATURE DEVELOPMENT,3,GO:1904018
POSITIVE REG OF VASCULATURE DEVELOPMENT,HSPB1,Increase,POSITIVE REG OF VASCULATURE DEVELOPMENT,3,GO:1904018
POST TRANSLATIONAL PROTEIN MODIFICATION,IGFBP5,Increase,POST TRANSLATIONAL PROTEIN MODIFICATION,1,GO:0043687
POST TRANSLATIONAL PROTEIN MODIFICATION,UBE2M,Increase,POST TRANSLATIONAL PROTEIN MODIFICATION,1,GO:0043687
POST TRANSLATIONAL PROTEIN MODIFICATION,APP,Increase,POST TRANSLATIONAL PROTEIN MODIFICATION,1,GO:0043687
POST TRANSLATIONAL PROTEIN MODIFICATION,VGF,Decrease,POST TRANSLATIONAL PROTEIN MODIFICATION,1,GO:0043687
POTASSIUM ION TRANSPORT,ATP1B1,Decrease,POTASSIUM ION TRANSPORT,8,GO:0006813
POTASSIUM ION TRANSPORT,KCNAB1,Decrease,POTASSIUM ION TRANSPORT,8,GO:0006813
POTASSIUM ION TRANSPORT,KCNH1,Decrease,POTASSIUM ION TRANSPORT,8,GO:0006813
POTASSIUM ION TRANSPORT,FHL1,Increase,POTASSIUM ION TRANSPORT,8,GO:0006813
POTASSIUM ION TRANSPORT,ACTN2,Decrease,POTASSIUM ION TRANSPORT,8,GO:0006813
POTASSIUM ION TRANSPORT,ATP1A3,Decrease,POTASSIUM ION TRANSPORT,8,GO:0006813
PROTEIN DNA COMPLEX SUBUNIT ORGANIZATION,RBBP4,Increase,PROTEIN DNA COMPLEX SUBUNIT ORGANIZATION,1,GO:0071824
PROTEIN MODIFICATION BY SMALL PROTEIN REMOVAL,UCHL1,Increase,PROTEIN MODIFICATION BY SMALL PROTEIN REMOVAL,1,GO:0070646
PROTEIN PEPTIDYL PROLYL ISOMERIZATION,PPIA,Increase,PROTEIN PEPTIDYL PROLYL ISOMERIZATION,3,GO:0000413
PROTEIN REFOLDING,PPIA,Increase,PROTEIN REFOLDING,3,GO:0042026
PROTEIN REFOLDING,SNRNP70,Increase,PROTEIN REFOLDING,3,GO:0042026
PROTON TRANSMEMBRANE TRANSPORT,NNT,Decrease,CATION TRANSPORT,8,GO:1902600
PROTON TRANSMEMBRANE TRANSPORT,ATP2A2,Decrease,CATION TRANSPORT,8,GO:1902600
PROTON TRANSMEMBRANE TRANSPORT,SLC4A10,Decrease,CATION TRANSPORT,8,GO:1902600
PURINE NUCLEOSIDE MONOPHOSPHATE BIOSYNTHETIC PROC.,GART,Increase,NUCLEOSIDE MONOPHOSPHATE BIOSYNTHETIC PROC.,5,GO:0009127
PURINE NUCLEOSIDE MONOPHOSPHATE BIOSYNTHETIC PROC.,AMPD2,Increase,NUCLEOSIDE MONOPHOSPHATE BIOSYNTHETIC PROC.,5,GO:0009127
PURINE NUCLEOSIDE MONOPHOSPHATE METABOLIC PROC.,GART,Increase,OXIDATIVE PHOSPHORYLATION,2,GO:0009126
PURINE NUCLEOSIDE MONOPHOSPHATE METABOLIC PROC.,AMPD2,Increase,OXIDATIVE PHOSPHORYLATION,2,GO:0009126
PURINE NUCLEOSIDE MONOPHOSPHATE METABOLIC PROC.,AK1,Increase,OXIDATIVE PHOSPHORYLATION,2,GO:0009126
REG OF AMYLOID BETA FORMATION,SPON1,Increase,AMYLOID PRECURSOR PROTEIN METABOLIC PROC.,4,GO:1902003
REG OF AMYLOID BETA FORMATION,APP,Increase,AMYLOID PRECURSOR PROTEIN METABOLIC PROC.,4,GO:1902003
REG OF CATION CHANNEL ACTIVITY,APP,Increase,CATION TRANSPORT,8,GO:2001257
REG OF CATION CHANNEL ACTIVITY,ARC,Decrease,CATION TRANSPORT,8,GO:2001257
REG OF CATION CHANNEL ACTIVITY,KCNAB1,Decrease,CATION TRANSPORT,8,GO:2001257
REG OF CATION CHANNEL ACTIVITY,ACTN2,Decrease,CATION TRANSPORT,8,GO:2001257
REG OF CELL CYCLE G2 M PHASE TRANSITION,APP,Increase,REG OF CELL CYCLE PROC.,1,GO:1902749
REG OF CELL CYCLE G2 M PHASE TRANSITION,BRSK1,Decrease,REG OF CELL CYCLE PROC.,1,GO:1902749
REG OF CELL CYCLE G2 M PHASE TRANSITION,FHL1,Increase,REG OF CELL CYCLE PROC.,1,GO:1902749
REG OF CELL CYCLE PHASE TRANSITION,BRSK1,Decrease,REG OF CELL CYCLE PROC.,1,GO:1901987
REG OF CELL CYCLE PHASE TRANSITION,BUB3,Increase,REG OF CELL CYCLE PROC.,1,GO:1901987
REG OF CELL CYCLE PHASE TRANSITION,APP,Increase,REG OF CELL CYCLE PROC.,1,GO:1901987
REG OF CELL CYCLE PHASE TRANSITION,FHL1,Increase,REG OF CELL CYCLE PROC.,1,GO:1901987
REG OF CELL CYCLE PROC.,BRSK1,Decrease,REG OF CELL CYCLE PROC.,1,GO:0010564
REG OF CELL CYCLE PROC.,RBBP4,Increase,REG OF CELL CYCLE PROC.,1,GO:0010564
REG OF CELL CYCLE PROC.,FHL1,Increase,REG OF CELL CYCLE PROC.,1,GO:0010564
REG OF CELL CYCLE PROC.,BUB3,Increase,REG OF CELL CYCLE PROC.,1,GO:0010564
REG OF CELL CYCLE PROC.,APP,Increase,REG OF CELL CYCLE PROC.,1,GO:0010564
REG OF CELLULAR RESPONSE TO GROWTH FACTOR STIMULUS,SLIT2,Increase,RESPONSE TO GROWTH FACTOR,3,GO:0090287
REG OF CELLULAR RESPONSE TO GROWTH FACTOR STIMULUS,FLT1,Increase,RESPONSE TO GROWTH FACTOR,3,GO:0090287
REG OF CELLULAR RESPONSE TO GROWTH FACTOR STIMULUS,SNX6,Increase,RESPONSE TO GROWTH FACTOR,3,GO:0090287
REG OF CELLULAR RESPONSE TO GROWTH FACTOR STIMULUS,SDCBP,Decrease,RESPONSE TO GROWTH FACTOR,3,GO:0090287
REG OF CELLULAR RESPONSE TO GROWTH FACTOR STIMULUS,CD109,Increase,RESPONSE TO GROWTH FACTOR,3,GO:0090287
REG OF CELLULAR RESPONSE TO GROWTH FACTOR STIMULUS,HTRA1,Increase,RESPONSE TO GROWTH FACTOR,3,GO:0090287
REG OF CELLULAR RESPONSE TO TRANSFORMING GROWTH FACTOR BETA STIMULUS,HTRA1,Increase,RESPONSE TO GROWTH FACTOR,3,GO:1903844
REG OF CELLULAR RESPONSE TO TRANSFORMING GROWTH FACTOR BETA STIMULUS,SDCBP,Decrease,RESPONSE TO GROWTH FACTOR,3,GO:1903844
REG OF CELLULAR RESPONSE TO TRANSFORMING GROWTH FACTOR BETA STIMULUS,CD109,Increase,RESPONSE TO GROWTH FACTOR,3,GO:1903844
REG OF CELLULAR RESPONSE TO TRANSFORMING GROWTH FACTOR BETA STIMULUS,SNX6,Increase,RESPONSE TO GROWTH FACTOR,3,GO:1903844
REG OF CHEMOTAXIS,HSPB1,Increase,REG OF LEUKOCYTE MIGRATION,3,GO:0050920
REG OF CHEMOTAXIS,SLIT2,Increase,REG OF LEUKOCYTE MIGRATION,3,GO:0050920
REG OF CHEMOTAXIS,MDK,Increase,REG OF LEUKOCYTE MIGRATION,3,GO:0050920
REG OF EPITHELIAL CELL APOPTOTIC PROC.,MDK,Increase,ENDOTHELIAL CELL APOPTOTIC PROC.,1,GO:1904035
REG OF ESTABLISHMENT OF PLANAR POLARITY,CTHRC1,Increase,MORPHOGENESIS OF A POLARIZED EPITHELIUM,5,GO:0090175
REG OF ESTABLISHMENT OF PROTEIN LOCALIZATION TO MITOCHONDRION,NPEPPS,Increase,REG OF ESTABLISHMENT OF PROTEIN LOCALIZATION TO MITOCHONDRION,4,GO:1903747
REG OF GLUTAMATE RECEPTOR SIG PATHWAY,ACTN2,Decrease,GLUTAMATE RECEPTOR SIG PATHWAY,7,GO:1900449
REG OF GLUTAMATE RECEPTOR SIG PATHWAY,APP,Increase,GLUTAMATE RECEPTOR SIG PATHWAY,7,GO:1900449
REG OF GLUTAMATE RECEPTOR SIG PATHWAY,ARC,Decrease,GLUTAMATE RECEPTOR SIG PATHWAY,7,GO:1900449
REG OF IMMUNE SYSTEM PROC.,MDK,Increase,ACTIVATION OF IMMUNE RESPONSE,1,GO:0002682
REG OF IMMUNE SYSTEM PROC.,HTRA1,Increase,ACTIVATION OF IMMUNE RESPONSE,1,GO:0002682
REG OF IMMUNE SYSTEM PROC.,GRAMD4,Decrease,ACTIVATION OF IMMUNE RESPONSE,1,GO:0002682
REG OF IMMUNE SYSTEM PROC.,NF1,Decrease,ACTIVATION OF IMMUNE RESPONSE,1,GO:0002682
REG OF IMMUNE SYSTEM PROC.,PLCL2,Decrease,ACTIVATION OF IMMUNE RESPONSE,1,GO:0002682
REG OF IMMUNE SYSTEM PROC.,SLIT2,Increase,ACTIVATION OF IMMUNE RESPONSE,1,GO:0002682
REG OF IMMUNE SYSTEM PROC.,CAMK4,Decrease,ACTIVATION OF IMMUNE RESPONSE,1,GO:0002682
REG OF IMMUNE SYSTEM PROC.,APCS,Increase,ACTIVATION OF IMMUNE RESPONSE,1,GO:0002682
REG OF IMMUNE SYSTEM PROC.,APP,Increase,ACTIVATION OF IMMUNE RESPONSE,1,GO:0002682
REG OF LEUKOCYTE CHEMOTAXIS,MDK,Increase,REG OF LEUKOCYTE MIGRATION,3,GO:0002688
REG OF LEUKOCYTE CHEMOTAXIS,SLIT2,Increase,REG OF LEUKOCYTE MIGRATION,3,GO:0002688
REG OF LEUKOCYTE MIGRATION,MDK,Increase,REG OF LEUKOCYTE MIGRATION,3,GO:0002685
REG OF LEUKOCYTE MIGRATION,APP,Increase,REG OF LEUKOCYTE MIGRATION,3,GO:0002685
REG OF LEUKOCYTE MIGRATION,SLIT2,Increase,REG OF LEUKOCYTE MIGRATION,3,GO:0002685
REG OF MEMBRANE POTENTIAL,ATP1B1,Decrease,POSITIVE REG OF NERVOUS SYSTEM PROC.,7,GO:0042391
REG OF MEMBRANE POTENTIAL,ATP1A3,Decrease,POSITIVE REG OF NERVOUS SYSTEM PROC.,7,GO:0042391
REG OF MEMBRANE POTENTIAL,ATP2A2,Decrease,POSITIVE REG OF NERVOUS SYSTEM PROC.,7,GO:0042391
REG OF MEMBRANE POTENTIAL,NNT,Decrease,POSITIVE REG OF NERVOUS SYSTEM PROC.,7,GO:0042391
REG OF MEMBRANE POTENTIAL,KCNH1,Decrease,POSITIVE REG OF NERVOUS SYSTEM PROC.,7,GO:0042391
REG OF MEMBRANE POTENTIAL,GSK3B,Decrease,POSITIVE REG OF NERVOUS SYSTEM PROC.,7,GO:0042391
REG OF MEMBRANE POTENTIAL,FHL1,Increase,POSITIVE REG OF NERVOUS SYSTEM PROC.,7,GO:0042391
REG OF MEMBRANE POTENTIAL,DGKI,Decrease,POSITIVE REG OF NERVOUS SYSTEM PROC.,7,GO:0042391
REG OF MEMBRANE POTENTIAL,ACTN2,Decrease,POSITIVE REG OF NERVOUS SYSTEM PROC.,7,GO:0042391
REG OF MEMBRANE POTENTIAL,APP,Increase,POSITIVE REG OF NERVOUS SYSTEM PROC.,7,GO:0042391
REG OF MITOTIC CELL CYCLE,FHL1,Increase,REG OF MITOTIC CELL CYCLE,1,GO:0007346
REG OF MITOTIC CELL CYCLE,SDCBP,Decrease,REG OF MITOTIC CELL CYCLE,1,GO:0007346
REG OF MITOTIC CELL CYCLE,BRSK1,Decrease,REG OF MITOTIC CELL CYCLE,1,GO:0007346
REG OF MITOTIC CELL CYCLE,APP,Increase,REG OF MITOTIC CELL CYCLE,1,GO:0007346
REG OF MITOTIC CELL CYCLE,BUB3,Increase,REG OF MITOTIC CELL CYCLE,1,GO:0007346
REG OF MORPHOGENESIS OF AN EPITHELIUM,MDK,Increase,MORPHOGENESIS OF A POLARIZED EPITHELIUM,5,GO:1905330
REG OF MORPHOGENESIS OF AN EPITHELIUM,CTHRC1,Increase,MORPHOGENESIS OF A POLARIZED EPITHELIUM,5,GO:1905330
REG OF NEURONAL SYNAPTIC PLASTICITY,ARC,Decrease,REG OF SYNAPTIC PLASTICITY,7,GO:0048168
REG OF NEURONAL SYNAPTIC PLASTICITY,SLC4A10,Decrease,REG OF SYNAPTIC PLASTICITY,7,GO:0048168
REG OF NEURONAL SYNAPTIC PLASTICITY,APP,Increase,REG OF SYNAPTIC PLASTICITY,7,GO:0048168
REG OF NEURONAL SYNAPTIC PLASTICITY,NF1,Decrease,REG OF SYNAPTIC PLASTICITY,7,GO:0048168
REG OF NEUROTRANSMITTER RECEPTOR ACTIVITY,NPTX2,Decrease,REG OF SIG RECEPTOR ACTIVITY,7,GO:0099601
REG OF NEUROTRANSMITTER RECEPTOR ACTIVITY,APP,Increase,REG OF SIG RECEPTOR ACTIVITY,7,GO:0099601
REG OF NEUROTRANSMITTER RECEPTOR ACTIVITY,ARC,Decrease,REG OF SIG RECEPTOR ACTIVITY,7,GO:0099601
REG OF NEUROTRANSMITTER RECEPTOR ACTIVITY,ACTN2,Decrease,REG OF SIG RECEPTOR ACTIVITY,7,GO:0099601
REG OF NEUROTRANSMITTER TRANSPORT,BACE1,Increase,NEUROTRANSMITTER TRANSPORT,7,GO:0051588
REG OF NEUROTRANSMITTER TRANSPORT,ADCY1,Decrease,NEUROTRANSMITTER TRANSPORT,7,GO:0051588
REG OF NEUROTRANSMITTER TRANSPORT,NF1,Decrease,NEUROTRANSMITTER TRANSPORT,7,GO:0051588
REG OF NEUROTRANSMITTER TRANSPORT,RAB3B,Decrease,NEUROTRANSMITTER TRANSPORT,7,GO:0051588
REG OF NEUROTRANSMITTER TRANSPORT,DGKI,Decrease,NEUROTRANSMITTER TRANSPORT,7,GO:0051588
REG OF NEUROTRANSMITTER TRANSPORT,ATP2A2,Decrease,NEUROTRANSMITTER TRANSPORT,7,GO:0051588
REG OF NEUROTRANSMITTER TRANSPORT,GSK3B,Decrease,NEUROTRANSMITTER TRANSPORT,7,GO:0051588
REG OF NEUROTRANSMITTER TRANSPORT,SYT12,Decrease,NEUROTRANSMITTER TRANSPORT,7,GO:0051588
REG OF OSSIFICATION,IGFBP5,Increase,REG OF OSSIFICATION,1,GO:0030278
REG OF OSSIFICATION,SMOC1,Increase,REG OF OSSIFICATION,1,GO:0030278
REG OF OSSIFICATION,MDK,Increase,REG OF OSSIFICATION,1,GO:0030278
REG OF OSSIFICATION,CTHRC1,Increase,REG OF OSSIFICATION,1,GO:0030278
REG OF OSTEOBLAST DIFFERENTIATION,CTHRC1,Increase,REG OF OSSIFICATION,1,GO:0045667
REG OF OSTEOBLAST DIFFERENTIATION,IGFBP5,Increase,REG OF OSSIFICATION,1,GO:0045667
REG OF OSTEOBLAST DIFFERENTIATION,SMOC1,Increase,REG OF OSSIFICATION,1,GO:0045667
REG OF POSTSYNAPTIC MEMBRANE POTENTIAL,GSK3B,Decrease,POSITIVE REG OF NERVOUS SYSTEM PROC.,7,GO:0060078
REG OF POSTSYNAPTIC MEMBRANE POTENTIAL,DGKI,Decrease,POSITIVE REG OF NERVOUS SYSTEM PROC.,7,GO:0060078
REG OF POSTSYNAPTIC MEMBRANE POTENTIAL,APP,Increase,POSITIVE REG OF NERVOUS SYSTEM PROC.,7,GO:0060078
REG OF PROTEIN MATURATION,SPON1,Increase,REG OF PROTEIN MATURATION,3,GO:1903317
REG OF RESPONSE TO BIOTIC STIMULUS,HTRA1,Increase,REG OF RESPONSE TO BIOTIC STIMULUS,3,GO:0002831
REG OF RESPONSE TO BIOTIC STIMULUS,GRAMD4,Decrease,REG OF RESPONSE TO BIOTIC STIMULUS,3,GO:0002831
REG OF SIG RECEPTOR ACTIVITY,APP,Increase,REG OF SIG RECEPTOR ACTIVITY,7,GO:0010469
REG OF SIG RECEPTOR ACTIVITY,ACTN2,Decrease,REG OF SIG RECEPTOR ACTIVITY,7,GO:0010469
REG OF SIG RECEPTOR ACTIVITY,ARC,Decrease,REG OF SIG RECEPTOR ACTIVITY,7,GO:0010469
REG OF SIG RECEPTOR ACTIVITY,NPTX2,Decrease,REG OF SIG RECEPTOR ACTIVITY,7,GO:0010469
REG OF SIG RECEPTOR ACTIVITY,SNX6,Increase,REG OF SIG RECEPTOR ACTIVITY,7,GO:0010469
REG OF SYNAPTIC PLASTICITY,BRSK1,Decrease,REG OF SYNAPTIC PLASTICITY,7,GO:0048167
REG OF SYNAPTIC PLASTICITY,SYT12,Decrease,REG OF SYNAPTIC PLASTICITY,7,GO:0048167
REG OF SYNAPTIC PLASTICITY,DGKI,Decrease,REG OF SYNAPTIC PLASTICITY,7,GO:0048167
REG OF SYNAPTIC PLASTICITY,SLC4A10,Decrease,REG OF SYNAPTIC PLASTICITY,7,GO:0048167
REG OF SYNAPTIC PLASTICITY,ARC,Decrease,REG OF SYNAPTIC PLASTICITY,7,GO:0048167
REG OF SYNAPTIC PLASTICITY,GSK3B,Decrease,REG OF SYNAPTIC PLASTICITY,7,GO:0048167
REG OF SYNAPTIC PLASTICITY,APP,Increase,REG OF SYNAPTIC PLASTICITY,7,GO:0048167
REG OF SYNAPTIC PLASTICITY,NF1,Decrease,REG OF SYNAPTIC PLASTICITY,7,GO:0048167
REG OF SYNAPTIC PLASTICITY,ADCY1,Decrease,REG OF SYNAPTIC PLASTICITY,7,GO:0048167
REG OF SYNAPTIC PLASTICITY,SLC8A3,Decrease,REG OF SYNAPTIC PLASTICITY,7,GO:0048167
REG OF SYNAPTIC TRANSMISSION GLUTAMATERGIC,DGKZ,Decrease,SYNAPTIC TRANSMISSION GLUTAMATERGIC,7,GO:0051966
REG OF SYNAPTIC TRANSMISSION GLUTAMATERGIC,DGKI,Decrease,SYNAPTIC TRANSMISSION GLUTAMATERGIC,7,GO:0051966
REG OF TRANS SYNAPTIC SIG,SLC8A3,Decrease,REG OF SYNAPTIC PLASTICITY,7,GO:0099177
REG OF TRANS SYNAPTIC SIG,BRSK1,Decrease,REG OF SYNAPTIC PLASTICITY,7,GO:0099177
REG OF TRANS SYNAPTIC SIG,NF1,Decrease,REG OF SYNAPTIC PLASTICITY,7,GO:0099177
REG OF TRANS SYNAPTIC SIG,SYT12,Decrease,REG OF SYNAPTIC PLASTICITY,7,GO:0099177
REG OF TRANS SYNAPTIC SIG,NPTX2,Decrease,REG OF SYNAPTIC PLASTICITY,7,GO:0099177
REG OF TRANS SYNAPTIC SIG,BACE1,Increase,REG OF SYNAPTIC PLASTICITY,7,GO:0099177
REG OF TRANS SYNAPTIC SIG,PLCL2,Decrease,REG OF SYNAPTIC PLASTICITY,7,GO:0099177
REG OF TRANS SYNAPTIC SIG,GSK3B,Decrease,REG OF SYNAPTIC PLASTICITY,7,GO:0099177
REG OF TRANS SYNAPTIC SIG,RAB3B,Decrease,REG OF SYNAPTIC PLASTICITY,7,GO:0099177
REG OF TRANS SYNAPTIC SIG,ADCY1,Decrease,REG OF SYNAPTIC PLASTICITY,7,GO:0099177
REG OF TRANS SYNAPTIC SIG,APP,Increase,REG OF SYNAPTIC PLASTICITY,7,GO:0099177
REG OF TRANS SYNAPTIC SIG,ARC,Decrease,REG OF SYNAPTIC PLASTICITY,7,GO:0099177
REG OF TRANS SYNAPTIC SIG,DGKZ,Decrease,REG OF SYNAPTIC PLASTICITY,7,GO:0099177
REG OF TRANS SYNAPTIC SIG,SLC4A10,Decrease,REG OF SYNAPTIC PLASTICITY,7,GO:0099177
REG OF TRANS SYNAPTIC SIG,DGKI,Decrease,REG OF SYNAPTIC PLASTICITY,7,GO:0099177
REG OF TRANS SYNAPTIC SIG,ATP2A2,Decrease,REG OF SYNAPTIC PLASTICITY,7,GO:0099177
REG OF TRANSMEMBRANE RECEPTOR PROTEIN SERINE THREONINE KINASE SIG PATHWAY,CD109,Increase,TRANSMEMBRANE RECEPTOR PROTEIN SERINE THREONINE KINASE SIG PATHWAY,3,GO:0090092
REG OF TRANSMEMBRANE RECEPTOR PROTEIN SERINE THREONINE KINASE SIG PATHWAY,SDCBP,Decrease,TRANSMEMBRANE RECEPTOR PROTEIN SERINE THREONINE KINASE SIG PATHWAY,3,GO:0090092
REG OF TRANSMEMBRANE RECEPTOR PROTEIN SERINE THREONINE KINASE SIG PATHWAY,HTRA1,Increase,TRANSMEMBRANE RECEPTOR PROTEIN SERINE THREONINE KINASE SIG PATHWAY,3,GO:0090092
REG OF TRANSMEMBRANE RECEPTOR PROTEIN SERINE THREONINE KINASE SIG PATHWAY,SNX6,Increase,TRANSMEMBRANE RECEPTOR PROTEIN SERINE THREONINE KINASE SIG PATHWAY,3,GO:0090092
RESPIRATORY ELECTRON TRANSPORT CHAIN,NDUFV1,Decrease,OXIDATIVE PHOSPHORYLATION,2,GO:0022904
RESPIRATORY ELECTRON TRANSPORT CHAIN,NDUFB3,Decrease,OXIDATIVE PHOSPHORYLATION,2,GO:0022904
RESPONSE TO BIOTIC STIMULUS,DCLK1,Decrease,REG OF RESPONSE TO BIOTIC STIMULUS,3,GO:0009607
RESPONSE TO BIOTIC STIMULUS,GRAMD4,Decrease,REG OF RESPONSE TO BIOTIC STIMULUS,3,GO:0009607
RESPONSE TO BIOTIC STIMULUS,ATP2A2,Decrease,REG OF RESPONSE TO BIOTIC STIMULUS,3,GO:0009607
RESPONSE TO BIOTIC STIMULUS,VGF,Decrease,REG OF RESPONSE TO BIOTIC STIMULUS,3,GO:0009607
RESPONSE TO BIOTIC STIMULUS,APCS,Increase,REG OF RESPONSE TO BIOTIC STIMULUS,3,GO:0009607
RESPONSE TO BIOTIC STIMULUS,HTRA1,Increase,REG OF RESPONSE TO BIOTIC STIMULUS,3,GO:0009607
RESPONSE TO BIOTIC STIMULUS,MT2A,Increase,REG OF RESPONSE TO BIOTIC STIMULUS,3,GO:0009607
RESPONSE TO BIOTIC STIMULUS,CFL1,Increase,REG OF RESPONSE TO BIOTIC STIMULUS,3,GO:0009607
RESPONSE TO BIOTIC STIMULUS,GSK3B,Decrease,REG OF RESPONSE TO BIOTIC STIMULUS,3,GO:0009607
RESPONSE TO BIOTIC STIMULUS,APP,Increase,REG OF RESPONSE TO BIOTIC STIMULUS,3,GO:0009607
RESPONSE TO BIOTIC STIMULUS,MACROD2,Increase,REG OF RESPONSE TO BIOTIC STIMULUS,3,GO:0009607
RESPONSE TO BIOTIC STIMULUS,ARHGEF2,Decrease,REG OF RESPONSE TO BIOTIC STIMULUS,3,GO:0009607
RESPONSE TO BIOTIC STIMULUS,CHGA,Increase,REG OF RESPONSE TO BIOTIC STIMULUS,3,GO:0009607
RESPONSE TO BIOTIC STIMULUS,HSPB1,Increase,REG OF RESPONSE TO BIOTIC STIMULUS,3,GO:0009607
RESPONSE TO BIOTIC STIMULUS,MAP4K2,Decrease,REG OF RESPONSE TO BIOTIC STIMULUS,3,GO:0009607
RESPONSE TO BIOTIC STIMULUS,GJB6,Decrease,REG OF RESPONSE TO BIOTIC STIMULUS,3,GO:0009607
RESPONSE TO COLD,VGF,Decrease,RESPONSE TO COLD,10,GO:0009409
RESPONSE TO COPPER ION,MT1E,Increase,RESPONSE TO COPPER ION,11,GO:0046688
RESPONSE TO COPPER ION,MT2A,Increase,RESPONSE TO COPPER ION,11,GO:0046688
RESPONSE TO COPPER ION,APP,Increase,RESPONSE TO COPPER ION,11,GO:0046688
RESPONSE TO COPPER ION,BACE1,Increase,RESPONSE TO COPPER ION,11,GO:0046688
RESPONSE TO CYTOKINE,MAP4K3,Decrease,CYTOKINE MEDIATED SIG PATHWAY,5,GO:0034097
RESPONSE TO CYTOKINE,APP,Increase,CYTOKINE MEDIATED SIG PATHWAY,5,GO:0034097
RESPONSE TO CYTOKINE,SLIT2,Increase,CYTOKINE MEDIATED SIG PATHWAY,5,GO:0034097
RESPONSE TO CYTOKINE,CFL1,Increase,CYTOKINE MEDIATED SIG PATHWAY,5,GO:0034097
RESPONSE TO CYTOKINE,PPIA,Increase,CYTOKINE MEDIATED SIG PATHWAY,5,GO:0034097
RESPONSE TO CYTOKINE,IL1RAPL1,Decrease,CYTOKINE MEDIATED SIG PATHWAY,5,GO:0034097
RESPONSE TO CYTOKINE,GSK3B,Decrease,CYTOKINE MEDIATED SIG PATHWAY,5,GO:0034097
RESPONSE TO CYTOKINE,AGPAT1,Decrease,CYTOKINE MEDIATED SIG PATHWAY,5,GO:0034097
RESPONSE TO CYTOKINE,MT2A,Increase,CYTOKINE MEDIATED SIG PATHWAY,5,GO:0034097
RESPONSE TO CYTOKINE,ARHGEF2,Decrease,CYTOKINE MEDIATED SIG PATHWAY,5,GO:0034097
RESPONSE TO GROWTH FACTOR,SNX6,Increase,RESPONSE TO GROWTH FACTOR,3,GO:0070848
RESPONSE TO GROWTH FACTOR,SLIT2,Increase,RESPONSE TO GROWTH FACTOR,3,GO:0070848
RESPONSE TO GROWTH FACTOR,CD109,Increase,RESPONSE TO GROWTH FACTOR,3,GO:0070848
RESPONSE TO GROWTH FACTOR,FLT1,Increase,RESPONSE TO GROWTH FACTOR,3,GO:0070848
RESPONSE TO GROWTH FACTOR,SDCBP,Decrease,RESPONSE TO GROWTH FACTOR,3,GO:0070848
RESPONSE TO GROWTH FACTOR,APP,Increase,RESPONSE TO GROWTH FACTOR,3,GO:0070848
RESPONSE TO GROWTH FACTOR,HSPB1,Increase,RESPONSE TO GROWTH FACTOR,3,GO:0070848
RESPONSE TO GROWTH FACTOR,HTRA1,Increase,RESPONSE TO GROWTH FACTOR,3,GO:0070848
RESPONSE TO INTERLEUKIN 1,APP,Increase,CYTOKINE MEDIATED SIG PATHWAY,5,GO:0070555
RESPONSE TO INTERLEUKIN 12,CFL1,Increase,CYTOKINE MEDIATED SIG PATHWAY,5,GO:0070671
RESPONSE TO INTERLEUKIN 12,PPIA,Increase,CYTOKINE MEDIATED SIG PATHWAY,5,GO:0070671
RESPONSE TO ISCHEMIA,UCHL1,Increase,RESPONSE TO ISCHEMIA,4,GO:0002931
RESPONSE TO TRANSFORMING GROWTH FACTOR BETA,SNX6,Increase,RESPONSE TO GROWTH FACTOR,3,GO:0071559
RESPONSE TO TRANSFORMING GROWTH FACTOR BETA,CD109,Increase,RESPONSE TO GROWTH FACTOR,3,GO:0071559
RESPONSE TO TRANSFORMING GROWTH FACTOR BETA,SDCBP,Decrease,RESPONSE TO GROWTH FACTOR,3,GO:0071559
RESPONSE TO TRANSFORMING GROWTH FACTOR BETA,HTRA1,Increase,RESPONSE TO GROWTH FACTOR,3,GO:0071559
RESPONSE TO TUMOR NECROSIS FACTOR,ARHGEF2,Decrease,CYTOKINE MEDIATED SIG PATHWAY,5,GO:0034612
RESPONSE TO TUMOR NECROSIS FACTOR,MAP4K3,Decrease,CYTOKINE MEDIATED SIG PATHWAY,5,GO:0034612
RETROGRADE TRANSPORT ENDOSOME TO GOLGI,SNX6,Increase,RETROGRADE TRANSPORT ENDOSOME TO GOLGI,4,GO:0042147
RETROGRADE TRANSPORT ENDOSOME TO GOLGI,SGSM2,Increase,RETROGRADE TRANSPORT ENDOSOME TO GOLGI,4,GO:0042147
RIBONUCLEOPROTEIN COMPLEX SUBUNIT ORGANIZATION,CPSF6,Increase,FORMATION OF CYTOPLASMIC TRANSLATION INITIATION COMPLEX,9,GO:0071826
RIBONUCLEOPROTEIN COMPLEX SUBUNIT ORGANIZATION,SNRPD2,Increase,FORMATION OF CYTOPLASMIC TRANSLATION INITIATION COMPLEX,9,GO:0071826
RIBONUCLEOSIDE MONOPHOSPHATE BIOSYNTHETIC PROC.,GART,Increase,NUCLEOSIDE MONOPHOSPHATE BIOSYNTHETIC PROC.,5,GO:0009156
RIBONUCLEOSIDE MONOPHOSPHATE BIOSYNTHETIC PROC.,AMPD2,Increase,NUCLEOSIDE MONOPHOSPHATE BIOSYNTHETIC PROC.,5,GO:0009156
RIBONUCLEOSIDE MONOPHOSPHATE METABOLIC PROC.,AMPD2,Increase,OXIDATIVE PHOSPHORYLATION,2,GO:0009161
RIBONUCLEOSIDE MONOPHOSPHATE METABOLIC PROC.,GART,Increase,OXIDATIVE PHOSPHORYLATION,2,GO:0009161
RIBONUCLEOSIDE MONOPHOSPHATE METABOLIC PROC.,AK1,Increase,OXIDATIVE PHOSPHORYLATION,2,GO:0009161
RNA DEPENDENT DNA BIOSYNTHETIC PROC.,GAR1,Increase,RNA DEPENDENT DNA BIOSYNTHETIC PROC.,1,GO:0006278
RNA DEPENDENT DNA BIOSYNTHETIC PROC.,PPIA,Increase,RNA DEPENDENT DNA BIOSYNTHETIC PROC.,1,GO:0006278
SERINE FAMILY AMINO ACID METABOLIC PROC.,GART,Increase,SULFUR AMINO ACID METABOLIC PROC.,3,GO:0009069
SMALL MOLECULE BIOSYNTHETIC PROC.,OSBPL3,Decrease,SMALL MOLECULE BIOSYNTHETIC PROC.,5,GO:0044283
SMALL MOLECULE BIOSYNTHETIC PROC.,PLCD1,Increase,SMALL MOLECULE BIOSYNTHETIC PROC.,5,GO:0044283
SMALL MOLECULE BIOSYNTHETIC PROC.,GART,Increase,SMALL MOLECULE BIOSYNTHETIC PROC.,5,GO:0044283
SMALL MOLECULE BIOSYNTHETIC PROC.,TKT,Increase,SMALL MOLECULE BIOSYNTHETIC PROC.,5,GO:0044283
SMALL MOLECULE BIOSYNTHETIC PROC.,PDE4A,Decrease,SMALL MOLECULE BIOSYNTHETIC PROC.,5,GO:0044283
SMALL MOLECULE BIOSYNTHETIC PROC.,LTA4H,Increase,SMALL MOLECULE BIOSYNTHETIC PROC.,5,GO:0044283
SMALL MOLECULE BIOSYNTHETIC PROC.,PLCL2,Decrease,SMALL MOLECULE BIOSYNTHETIC PROC.,5,GO:0044283
SMALL MOLECULE BIOSYNTHETIC PROC.,PPIP5K2,Decrease,SMALL MOLECULE BIOSYNTHETIC PROC.,5,GO:0044283
SMOOTH MUSCLE CELL MIGRATION,PLXNA1,Decrease,MUSCLE CELL MIGRATION,3,GO:0014909
SMOOTH MUSCLE CELL MIGRATION,MDK,Increase,MUSCLE CELL MIGRATION,3,GO:0014909
SMOOTH MUSCLE CELL MIGRATION,IGFBP5,Increase,MUSCLE CELL MIGRATION,3,GO:0014909
SMOOTH MUSCLE CELL MIGRATION,AAMP,Increase,MUSCLE CELL MIGRATION,3,GO:0014909
SMOOTH MUSCLE CELL MIGRATION,SLIT2,Increase,MUSCLE CELL MIGRATION,3,GO:0014909
STEM CELL DIFFERENTIATION,CFL1,Increase,STEM CELL DIFFERENTIATION,5,GO:0048863
STRIATED MUSCLE CELL APOPTOTIC PROC.,MDK,Increase,MUSCLE CELL APOPTOTIC PROC.,1,GO:0010658
SYNAPTIC SIG,ATP2A2,Decrease,REG OF SYNAPTIC PLASTICITY,7,GO:0099536
SYNAPTIC SIG,BRSK1,Decrease,REG OF SYNAPTIC PLASTICITY,7,GO:0099536
SYNAPTIC SIG,NF1,Decrease,REG OF SYNAPTIC PLASTICITY,7,GO:0099536
SYNAPTIC SIG,ARC,Decrease,REG OF SYNAPTIC PLASTICITY,7,GO:0099536
SYNAPTIC SIG,IL1RAPL1,Decrease,REG OF SYNAPTIC PLASTICITY,7,GO:0099536
SYNAPTIC SIG,APP,Increase,REG OF SYNAPTIC PLASTICITY,7,GO:0099536
SYNAPTIC SIG,ADCY1,Decrease,REG OF SYNAPTIC PLASTICITY,7,GO:0099536
SYNAPTIC SIG,GSK3B,Decrease,REG OF SYNAPTIC PLASTICITY,7,GO:0099536
SYNAPTIC SIG,DGKZ,Decrease,REG OF SYNAPTIC PLASTICITY,7,GO:0099536
SYNAPTIC SIG,SDCBP,Decrease,REG OF SYNAPTIC PLASTICITY,7,GO:0099536
SYNAPTIC SIG,RAB3B,Decrease,REG OF SYNAPTIC PLASTICITY,7,GO:0099536
SYNAPTIC SIG,SLC8A3,Decrease,REG OF SYNAPTIC PLASTICITY,7,GO:0099536
SYNAPTIC SIG,RPH3A,Decrease,REG OF SYNAPTIC PLASTICITY,7,GO:0099536
SYNAPTIC SIG,BACE1,Increase,REG OF SYNAPTIC PLASTICITY,7,GO:0099536
SYNAPTIC SIG,BSN,Decrease,REG OF SYNAPTIC PLASTICITY,7,GO:0099536
SYNAPTIC SIG,NPTX2,Decrease,REG OF SYNAPTIC PLASTICITY,7,GO:0099536
SYNAPTIC SIG,PLCL2,Decrease,REG OF SYNAPTIC PLASTICITY,7,GO:0099536
SYNAPTIC SIG,DAGLB,Increase,REG OF SYNAPTIC PLASTICITY,7,GO:0099536
SYNAPTIC SIG,SYT12,Decrease,REG OF SYNAPTIC PLASTICITY,7,GO:0099536
SYNAPTIC SIG,DGKI,Decrease,REG OF SYNAPTIC PLASTICITY,7,GO:0099536
SYNAPTIC SIG,SLC4A10,Decrease,REG OF SYNAPTIC PLASTICITY,7,GO:0099536
SYNAPTIC TRANSMISSION GLUTAMATERGIC,DGKZ,Decrease,SYNAPTIC TRANSMISSION GLUTAMATERGIC,7,GO:0035249
SYNAPTIC TRANSMISSION GLUTAMATERGIC,DGKI,Decrease,SYNAPTIC TRANSMISSION GLUTAMATERGIC,7,GO:0035249
SYNAPTIC TRANSMISSION GLUTAMATERGIC,NF1,Decrease,SYNAPTIC TRANSMISSION GLUTAMATERGIC,7,GO:0035249
T CELL MIGRATION,APP,Increase,MONONUCLEAR CELL MIGRATION,3,GO:0072678
TISSUE REMODELING,IGFBP5,Increase,TISSUE REMODELING,1,GO:0048771
TISSUE REMODELING,MDK,Increase,TISSUE REMODELING,1,GO:0048771
TISSUE REMODELING,NF1,Decrease,TISSUE REMODELING,1,GO:0048771
TISSUE REMODELING,CTHRC1,Increase,TISSUE REMODELING,1,GO:0048771
TRANSFORMING GROWTH FACTOR BETA RECEPTOR SIG PATHWAY,CD109,Increase,TRANSMEMBRANE RECEPTOR PROTEIN SERINE THREONINE KINASE SIG PATHWAY,3,GO:0007179
TRANSFORMING GROWTH FACTOR BETA RECEPTOR SIG PATHWAY,SDCBP,Decrease,TRANSMEMBRANE RECEPTOR PROTEIN SERINE THREONINE KINASE SIG PATHWAY,3,GO:0007179
TRANSFORMING GROWTH FACTOR BETA RECEPTOR SIG PATHWAY,HTRA1,Increase,TRANSMEMBRANE RECEPTOR PROTEIN SERINE THREONINE KINASE SIG PATHWAY,3,GO:0007179
TRANSFORMING GROWTH FACTOR BETA RECEPTOR SIG PATHWAY,SNX6,Increase,TRANSMEMBRANE RECEPTOR PROTEIN SERINE THREONINE KINASE SIG PATHWAY,3,GO:0007179
TRANSMEMBRANE RECEPTOR PROTEIN SERINE THREONINE KINASE SIG PATHWAY,SDCBP,Decrease,TRANSMEMBRANE RECEPTOR PROTEIN SERINE THREONINE KINASE SIG PATHWAY,3,GO:0007178
TRANSMEMBRANE RECEPTOR PROTEIN SERINE THREONINE KINASE SIG PATHWAY,SNX6,Increase,TRANSMEMBRANE RECEPTOR PROTEIN SERINE THREONINE KINASE SIG PATHWAY,3,GO:0007178
TRANSMEMBRANE RECEPTOR PROTEIN SERINE THREONINE KINASE SIG PATHWAY,HTRA1,Increase,TRANSMEMBRANE RECEPTOR PROTEIN SERINE THREONINE KINASE SIG PATHWAY,3,GO:0007178
TRANSMEMBRANE RECEPTOR PROTEIN SERINE THREONINE KINASE SIG PATHWAY,CD109,Increase,TRANSMEMBRANE RECEPTOR PROTEIN SERINE THREONINE KINASE SIG PATHWAY,3,GO:0007178
UNSATURATED FATTY ACID METABOLIC PROC.,DAGLB,Increase,ICOSANOID METABOLIC PROC.,3,GO:0033559
VASCULAR ENDOTHELIAL GROWTH FACTOR RECEPTOR SIG PATHWAY,HSPB1,Increase,VASCULAR ENDOTHELIAL GROWTH FACTOR RECEPTOR SIG PATHWAY,4,GO:0048010
VASCULAR ENDOTHELIAL GROWTH FACTOR RECEPTOR SIG PATHWAY,FLT1,Increase,VASCULAR ENDOTHELIAL GROWTH FACTOR RECEPTOR SIG PATHWAY,4,GO:0048010
